"date","heure","tension","intensite","puissance","resistance"
2021-01-03,19:13:04.235411,5.12,0.481,2.462,10.6
2021-01-03,19:13:05.525480,5.14,0.340,1.749,15.1
2021-01-03,19:13:06.843995,5.12,0.377,1.927,13.5
2021-01-03,19:13:08.135357,5.13,0.337,1.728,15.2
2021-01-03,19:13:09.457748,5.13,0.336,1.727,15.2
2021-01-03,19:13:10.749069,5.12,0.566,2.898,9.0
2021-01-03,19:13:12.070475,5.13,0.441,2.260,11.6
2021-01-03,19:13:13.361598,5.14,0.329,1.688,15.6
2021-01-03,19:13:14.682875,5.10,0.539,2.746,9.4
2021-01-03,19:13:15.974063,5.11,0.445,2.271,11.4
2021-01-03,19:13:17.295389,5.11,0.445,2.273,11.4
2021-01-03,19:13:18.586630,5.11,0.549,2.803,9.3
2021-01-03,19:13:19.908162,5.07,0.591,2.998,8.5
2021-01-03,19:13:21.199110,5.09,0.633,3.221,8.0
2021-01-03,19:13:22.520766,5.09,0.488,2.487,10.4
2021-01-03,19:13:23.811654,5.07,0.525,2.664,9.6
2021-01-03,19:13:25.132910,5.06,0.334,1.690,15.1
2021-01-03,19:13:26.424298,5.07,0.512,2.598,9.9
2021-01-03,19:13:27.745619,5.11,0.596,3.045,8.5
2021-01-03,19:13:29.036854,5.09,0.591,3.004,8.6
2021-01-03,19:13:30.357903,5.06,0.564,2.851,8.9
2021-01-03,19:13:31.649280,5.14,0.540,2.776,9.5
2021-01-03,19:13:32.971868,5.14,0.325,1.670,15.8
2021-01-03,19:13:34.263257,5.14,0.315,1.617,16.3
2021-01-03,19:13:35.584191,5.14,0.315,1.617,16.3
2021-01-03,19:13:36.875383,5.14,0.312,1.603,16.4
2021-01-03,19:13:38.196717,5.14,0.309,1.588,16.6
2021-01-03,19:13:39.486655,5.14,0.310,1.594,16.5
2021-01-03,19:13:40.808200,5.14,0.308,1.585,16.6
2021-01-03,19:13:42.099297,5.14,0.310,1.596,16.5
2021-01-03,19:13:43.420726,5.14,0.462,2.374,11.1
2021-01-03,19:13:44.711720,5.09,0.521,2.652,9.7
2021-01-03,19:13:46.032980,5.09,0.347,1.762,14.6
2021-01-03,19:13:47.324473,5.10,0.530,2.705,9.6
2021-01-03,19:13:48.645634,5.11,0.478,2.444,10.6
2021-01-03,19:13:49.936855,5.11,0.456,2.328,11.1
2021-01-03,19:13:51.258265,5.11,0.537,2.739,9.5
2021-01-03,19:13:52.550615,5.08,0.646,3.283,7.8
2021-01-03,19:13:53.872038,5.07,0.504,2.555,10.0
2021-01-03,19:13:55.163375,5.09,0.492,2.504,10.3
2021-01-03,19:13:56.484395,5.10,0.575,2.930,8.8
2021-01-03,19:13:57.777214,5.10,0.519,2.648,9.8
2021-01-03,19:13:59.098132,5.10,0.577,2.942,8.8
2021-01-03,19:14:00.389753,5.11,0.304,1.552,16.8
2021-01-03,19:14:01.710811,5.13,0.290,1.488,17.6
2021-01-03,19:14:03.001889,5.09,0.486,2.471,10.4
2021-01-03,19:14:04.323084,5.12,0.570,2.918,8.9
2021-01-03,19:14:05.614633,5.09,0.443,2.255,11.5
2021-01-03,19:14:06.935641,5.08,0.501,2.545,10.1
2021-01-03,19:14:08.228289,5.10,0.470,2.397,10.8
2021-01-03,19:14:09.549468,5.08,0.565,2.866,8.9
2021-01-03,19:14:10.840923,5.10,0.511,2.603,9.9
2021-01-03,19:14:12.162379,5.09,0.485,2.466,10.4
2021-01-03,19:14:13.453186,5.10,0.719,3.662,7.0
2021-01-03,19:14:14.774832,5.10,0.566,2.886,9.0
2021-01-03,19:14:16.065665,5.10,0.474,2.417,10.7
2021-01-03,19:14:17.386938,5.11,0.617,3.149,8.2
2021-01-03,19:14:18.679478,5.08,0.597,3.033,8.5
2021-01-03,19:14:19.999430,5.04,0.328,1.649,15.3
2021-01-03,19:14:21.290736,5.14,0.289,1.488,17.7
2021-01-03,19:14:22.611990,5.08,0.441,2.240,11.5
2021-01-03,19:14:23.903257,5.12,0.644,3.294,7.9
2021-01-03,19:14:25.238211,5.07,0.441,2.237,11.4
2021-01-03,19:14:26.518391,5.11,0.507,2.588,10.0
2021-01-03,19:14:27.836939,5.11,0.469,2.398,10.8
2021-01-03,19:14:29.129913,5.08,0.518,2.633,9.8
2021-01-03,19:14:30.450897,5.09,0.641,3.263,7.9
2021-01-03,19:14:31.742126,5.09,0.472,2.399,10.7
2021-01-03,19:14:33.063416,5.09,0.547,2.783,9.3
2021-01-03,19:14:34.354669,5.10,0.560,2.854,9.1
2021-01-03,19:14:35.676076,5.10,0.464,2.368,10.9
2021-01-03,19:14:36.967201,5.10,0.607,3.094,8.3
2021-01-03,19:14:38.288458,5.13,0.353,1.808,14.5
2021-01-03,19:14:39.579698,5.12,0.355,1.821,14.4
2021-01-03,19:14:40.900947,5.13,0.623,3.192,8.2
2021-01-03,19:14:42.192281,5.05,0.568,2.872,8.8
2021-01-03,19:14:43.513504,5.12,0.657,3.363,7.7
2021-01-03,19:14:44.804657,5.15,0.325,1.675,15.8
2021-01-03,19:14:46.126018,5.11,0.552,2.821,9.2
2021-01-03,19:14:47.417247,5.06,0.438,2.218,11.5
2021-01-03,19:14:48.740976,5.08,0.519,2.632,9.7
2021-01-03,19:14:50.032459,5.10,0.451,2.298,11.3
2021-01-03,19:14:51.351111,5.10,0.483,2.465,10.5
2021-01-03,19:14:52.642343,5.10,0.491,2.506,10.3
2021-01-03,19:14:53.965835,5.10,0.560,2.859,9.1
2021-01-03,19:14:55.257360,5.10,0.571,2.911,8.9
2021-01-03,19:14:56.576251,5.08,0.580,2.950,8.7
2021-01-03,19:14:57.867357,5.08,0.521,2.650,9.7
2021-01-03,19:14:59.191341,5.09,0.589,2.995,8.6
2021-01-03,19:15:00.480023,5.09,0.486,2.475,10.4
2021-01-03,19:15:01.801308,5.11,0.512,2.612,9.9
2021-01-03,19:15:03.092324,5.09,0.538,2.739,9.4
2021-01-03,19:15:04.413777,5.08,0.799,4.056,6.3
2021-01-03,19:15:05.704822,5.06,0.694,3.508,7.2
2021-01-03,19:15:07.027456,5.15,0.292,1.502,17.6
2021-01-03,19:15:08.318657,5.13,0.443,2.273,11.5
2021-01-03,19:15:09.640048,5.11,0.657,3.358,7.7
2021-01-03,19:15:10.931141,5.07,0.418,2.117,12.1
2021-01-03,19:15:12.252360,5.10,0.497,2.535,10.2
2021-01-03,19:15:13.543672,5.09,0.528,2.689,9.6
2021-01-03,19:15:14.864974,5.09,0.471,2.397,10.7
2021-01-03,19:15:16.156215,5.07,0.560,2.837,9.0
2021-01-03,19:15:17.477826,5.07,0.400,2.029,12.6
2021-01-03,19:15:18.768689,5.13,0.375,1.923,13.6
2021-01-03,19:15:20.090041,5.12,0.401,2.053,12.7
2021-01-03,19:15:21.381405,5.07,0.635,3.216,7.9
2021-01-03,19:15:22.702735,5.10,0.541,2.755,9.4
2021-01-03,19:15:23.995068,5.10,0.473,2.412,10.7
2021-01-03,19:15:25.316441,5.07,0.560,2.839,9.0
2021-01-03,19:15:26.606430,5.06,0.487,2.464,10.3
2021-01-03,19:15:27.928743,5.07,0.730,3.700,6.9
2021-01-03,19:15:29.232928,5.06,0.677,3.425,7.4
2021-01-03,19:15:30.540009,5.05,0.718,3.622,7.0
2021-01-03,19:15:31.831435,5.14,0.330,1.692,15.5
2021-01-03,19:15:33.152810,5.14,0.441,2.266,11.6
2021-01-03,19:15:34.443827,5.09,0.662,3.364,7.6
2021-01-03,19:15:35.765129,5.09,0.373,1.897,13.6
2021-01-03,19:15:37.056272,5.11,0.516,2.635,9.9
2021-01-03,19:15:38.377596,5.10,0.511,2.604,9.9
2021-01-03,19:15:39.668951,5.11,0.487,2.489,10.4
2021-01-03,19:15:40.990221,5.08,0.613,3.110,8.2
2021-01-03,19:15:42.280372,5.07,0.496,2.514,10.2
2021-01-03,19:15:43.602896,5.09,0.509,2.591,9.9
2021-01-03,19:15:44.894261,5.09,0.556,2.828,9.1
2021-01-03,19:15:46.215363,5.10,0.520,2.650,9.7
2021-01-03,19:15:47.506366,5.11,0.603,3.077,8.4
2021-01-03,19:15:48.827699,5.04,0.674,3.391,7.4
2021-01-03,19:15:50.119278,5.14,0.321,1.649,16.0
2021-01-03,19:15:51.439008,5.11,0.293,1.494,17.4
2021-01-03,19:15:52.730303,5.06,0.590,2.987,8.5
2021-01-03,19:15:54.052739,5.13,0.541,2.778,9.4
2021-01-03,19:15:55.345264,5.07,0.440,2.227,11.5
2021-01-03,19:15:56.663995,5.10,0.469,2.392,10.8
2021-01-03,19:15:57.955082,5.11,0.468,2.388,10.9
2021-01-03,19:15:59.278986,5.09,0.620,3.156,8.2
2021-01-03,19:16:00.568091,5.09,0.607,3.087,8.3
2021-01-03,19:16:01.889008,5.08,0.492,2.497,10.3
2021-01-03,19:16:03.180339,5.09,0.562,2.858,9.0
2021-01-03,19:16:04.504115,5.08,0.575,2.921,8.8
2021-01-03,19:16:05.792842,5.11,0.461,2.353,11.0
2021-01-03,19:16:07.114219,5.08,0.533,2.708,9.5
2021-01-03,19:16:08.405447,5.13,0.463,2.375,11.0
2021-01-03,19:16:09.726712,5.13,0.431,2.209,11.9
2021-01-03,19:16:11.017993,5.12,0.626,3.204,8.1
2021-01-03,19:16:12.339179,5.07,0.675,3.425,7.5
2021-01-03,19:16:13.630784,5.10,0.780,3.980,6.5
2021-01-03,19:16:14.951813,5.14,0.292,1.503,17.5
2021-01-03,19:16:16.243103,5.11,0.519,2.656,9.8
2021-01-03,19:16:17.564179,5.13,0.562,2.882,9.1
2021-01-03,19:16:18.855426,5.09,0.576,2.930,8.8
2021-01-03,19:16:20.176856,5.11,0.475,2.427,10.7
2021-01-03,19:16:21.468133,5.09,0.482,2.456,10.5
2021-01-03,19:16:22.789283,5.09,0.549,2.799,9.2
2021-01-03,19:16:24.080837,5.09,0.684,3.478,7.4
2021-01-03,19:16:25.401752,5.08,0.491,2.496,10.3
2021-01-03,19:16:26.693147,5.08,0.521,2.646,9.7
2021-01-03,19:16:28.014237,5.08,0.543,2.762,9.3
2021-01-03,19:16:29.305508,5.10,0.587,2.992,8.6
2021-01-03,19:16:30.626863,5.10,0.528,2.691,9.6
2021-01-03,19:16:31.918062,5.09,0.750,3.817,6.7
2021-01-03,19:16:33.239323,5.10,0.608,3.098,8.3
2021-01-03,19:16:34.530807,5.09,0.784,3.988,6.4
2021-01-03,19:16:35.852137,5.06,0.662,3.349,7.6
2021-01-03,19:16:37.143072,5.14,0.296,1.520,17.3
2021-01-03,19:16:38.464497,5.11,0.294,1.502,17.3
2021-01-03,19:16:39.755557,5.06,0.596,3.018,8.4
2021-01-03,19:16:41.076934,5.13,0.562,2.883,9.1
2021-01-03,19:16:42.368297,5.08,0.451,2.292,11.2
2021-01-03,19:16:43.689362,5.10,0.488,2.488,10.4
2021-01-03,19:16:44.980637,5.11,0.453,2.315,11.2
2021-01-03,19:16:46.301894,5.10,0.595,3.035,8.5
2021-01-03,19:16:47.593326,5.08,0.373,1.891,13.6
2021-01-03,19:16:48.914476,5.14,0.331,1.701,15.5
2021-01-03,19:16:50.204435,5.14,0.339,1.743,15.1
2021-01-03,19:16:51.525629,5.14,0.322,1.655,15.9
2021-01-03,19:16:52.816874,5.14,0.323,1.662,15.8
2021-01-03,19:16:54.138479,5.14,0.323,1.662,15.8
2021-01-03,19:16:55.433111,5.14,0.330,1.693,15.6
2021-01-03,19:16:56.750937,5.14,0.323,1.661,15.9
2021-01-03,19:16:58.041886,5.14,0.320,1.643,16.0
2021-01-03,19:16:59.365680,5.14,0.318,1.634,16.1
2021-01-03,19:17:00.658195,5.14,0.320,1.642,16.0
2021-01-03,19:17:01.975663,5.14,0.320,1.643,16.0
2021-01-03,19:17:03.266124,5.14,0.636,3.271,8.0
2021-01-03,19:17:04.587029,5.11,0.555,2.836,9.1
2021-01-03,19:17:05.880794,5.08,0.553,2.810,9.2
2021-01-03,19:17:07.199581,5.08,0.595,3.018,8.5
2021-01-03,19:17:08.490782,5.14,0.303,1.555,16.9
2021-01-03,19:17:09.812126,5.11,0.314,1.605,16.2
2021-01-03,19:17:11.104581,5.06,0.554,2.805,9.1
2021-01-03,19:17:12.424424,5.13,0.594,3.043,8.6
2021-01-03,19:17:13.715914,5.06,0.445,2.250,11.3
2021-01-03,19:17:15.037081,5.10,0.502,2.556,10.1
2021-01-03,19:17:16.328481,5.09,0.478,2.433,10.6
2021-01-03,19:17:17.649543,5.08,0.582,2.957,8.7
2021-01-03,19:17:18.940908,5.08,0.610,3.101,8.3
2021-01-03,19:17:20.261981,5.09,0.501,2.547,10.1
2021-01-03,19:17:21.553418,5.10,0.603,3.074,8.4
2021-01-03,19:17:22.874643,5.10,0.570,2.903,8.9
2021-01-03,19:17:24.165852,5.11,0.476,2.429,10.7
2021-01-03,19:17:25.487174,5.07,0.566,2.865,8.9
2021-01-03,19:17:26.778775,5.08,0.583,2.958,8.7
2021-01-03,19:17:28.099707,5.09,0.575,2.925,8.8
2021-01-03,19:17:29.390891,5.06,0.560,2.830,9.0
2021-01-03,19:17:30.712194,5.11,0.509,2.600,10.0
2021-01-03,19:17:32.008492,5.15,0.295,1.520,17.4
2021-01-03,19:17:33.351850,5.12,0.463,2.369,11.0
2021-01-03,19:17:34.696414,5.09,0.538,2.737,9.4
2021-01-03,19:17:35.957113,5.06,0.635,3.215,7.9
2021-01-03,19:17:37.237241,5.10,0.448,2.287,11.3
2021-01-03,19:17:38.549759,5.08,0.486,2.471,10.4
2021-01-03,19:17:39.840973,5.11,0.530,2.705,9.6
2021-01-03,19:17:41.161082,5.09,0.598,3.042,8.5
2021-01-03,19:17:42.452467,5.12,0.601,3.076,8.5
2021-01-03,19:17:43.773606,5.12,0.394,2.018,12.9
2021-01-03,19:17:45.064837,5.13,0.375,1.923,13.6
2021-01-03,19:17:46.386105,5.10,0.564,2.872,9.0
2021-01-03,19:17:47.676031,5.09,0.493,2.511,10.3
2021-01-03,19:17:48.997661,5.11,0.497,2.536,10.2
2021-01-03,19:17:50.287555,5.05,0.670,3.383,7.5
2021-01-03,19:17:51.609901,5.15,0.294,1.514,17.5
2021-01-03,19:17:52.901326,5.11,0.342,1.749,14.9
2021-01-03,19:17:54.222430,5.06,0.441,2.232,11.4
2021-01-03,19:17:55.513608,5.08,0.500,2.541,10.1
2021-01-03,19:17:56.835013,5.10,0.450,2.294,11.3
2021-01-03,19:17:58.126085,5.11,0.482,2.463,10.5
2021-01-03,19:17:59.446355,5.11,0.498,2.543,10.2
2021-01-03,19:18:00.739011,5.07,0.550,2.786,9.2
2021-01-03,19:18:02.058730,5.08,0.527,2.677,9.6
2021-01-03,19:18:03.350003,5.10,0.483,2.460,10.5
2021-01-03,19:18:04.671549,5.09,0.575,2.930,8.8
2021-01-03,19:18:05.962451,5.09,0.614,3.128,8.2
2021-01-03,19:18:07.283775,5.10,0.475,2.425,10.7
2021-01-03,19:18:08.574909,5.13,0.558,2.861,9.2
2021-01-03,19:18:09.896385,5.13,0.359,1.841,14.2
2021-01-03,19:18:11.187459,5.12,0.399,2.040,12.8
2021-01-03,19:18:12.508732,5.05,0.622,3.141,8.1
2021-01-03,19:18:13.799980,5.09,0.540,2.750,9.4
2021-01-03,19:18:15.123838,5.11,0.449,2.296,11.3
2021-01-03,19:18:16.412550,5.15,0.316,1.625,16.2
2021-01-03,19:18:17.734176,5.11,0.421,2.148,12.1
2021-01-03,19:18:19.024967,5.08,0.523,2.659,9.7
2021-01-03,19:18:20.346619,5.07,0.528,2.679,9.5
2021-01-03,19:18:21.637636,5.11,0.465,2.374,10.9
2021-01-03,19:18:22.958800,5.11,0.480,2.453,10.6
2021-01-03,19:18:24.250158,5.09,0.539,2.740,9.4
2021-01-03,19:18:25.571330,5.07,0.554,2.804,9.1
2021-01-03,19:18:26.862555,5.09,0.586,2.981,8.6
2021-01-03,19:18:28.183915,5.08,0.526,2.670,9.6
2021-01-03,19:18:29.477558,5.13,0.507,2.601,10.1
2021-01-03,19:18:30.796537,5.09,0.524,2.668,9.7
2021-01-03,19:18:32.087641,5.08,0.481,2.442,10.5
2021-01-03,19:18:33.408993,5.09,0.579,2.946,8.7
2021-01-03,19:18:34.700427,5.08,0.591,2.999,8.5
2021-01-03,19:18:36.021455,5.12,0.362,1.850,14.1
2021-01-03,19:18:37.312646,5.13,0.356,1.827,14.4
2021-01-03,19:18:38.634318,5.13,0.348,1.784,14.7
2021-01-03,19:18:39.925206,5.13,0.355,1.821,14.4
2021-01-03,19:18:41.246623,5.14,0.316,1.625,16.2
2021-01-03,19:18:42.538030,5.14,0.317,1.631,16.2
2021-01-03,19:18:43.858989,5.02,0.340,1.708,14.7
2021-01-03,19:18:45.150509,5.12,0.639,3.271,8.0
2021-01-03,19:18:46.471448,5.09,0.501,2.552,10.1
2021-01-03,19:18:47.762796,5.09,0.505,2.571,10.0
2021-01-03,19:18:49.084178,5.13,0.361,1.854,14.2
2021-01-03,19:18:50.375309,5.13,0.295,1.513,17.3
2021-01-03,19:18:51.696522,5.08,0.706,3.590,7.1
2021-01-03,19:18:52.987949,5.12,0.632,3.236,8.1
2021-01-03,19:18:54.309199,5.11,0.450,2.299,11.3
2021-01-03,19:18:55.600077,5.09,0.495,2.520,10.2
2021-01-03,19:18:56.921873,5.12,0.489,2.503,10.4
2021-01-03,19:18:58.212807,5.10,0.568,2.896,8.9
2021-01-03,19:18:59.534128,5.07,0.489,2.478,10.3
2021-01-03,19:19:00.825447,5.08,0.577,2.933,8.8
2021-01-03,19:19:02.145329,5.10,0.660,3.364,7.7
2021-01-03,19:19:03.436706,5.09,0.495,2.521,10.2
2021-01-03,19:19:04.758060,5.10,0.473,2.409,10.7
2021-01-03,19:19:06.047932,5.08,0.483,2.456,10.5
2021-01-03,19:19:07.369135,5.10,0.541,2.757,9.4
2021-01-03,19:19:08.660398,5.08,0.642,3.261,7.9
2021-01-03,19:19:09.981660,5.15,0.333,1.711,15.4
2021-01-03,19:19:11.272964,5.11,0.297,1.519,17.1
2021-01-03,19:19:12.594262,5.08,0.448,2.273,11.3
2021-01-03,19:19:13.885433,5.08,0.496,2.521,10.2
2021-01-03,19:19:15.205767,5.11,0.451,2.299,11.3
2021-01-03,19:19:16.496643,5.09,0.525,2.672,9.6
2021-01-03,19:19:17.818321,5.11,0.539,2.754,9.4
2021-01-03,19:19:19.109353,5.07,0.605,3.064,8.3
2021-01-03,19:19:20.430691,5.13,0.411,2.112,12.4
2021-01-03,19:19:21.724231,5.14,0.344,1.766,14.9
2021-01-03,19:19:23.043136,5.14,0.335,1.723,15.3
2021-01-03,19:19:24.334643,5.14,0.324,1.665,15.8
2021-01-03,19:19:25.658204,5.14,0.326,1.675,15.7
2021-01-03,19:19:26.949337,5.14,0.325,1.668,15.8
2021-01-03,19:19:28.268242,5.14,0.323,1.661,15.8
2021-01-03,19:19:29.559252,5.14,0.329,1.689,15.6
2021-01-03,19:19:30.881822,5.14,0.320,1.643,16.0
2021-01-03,19:19:32.175617,5.14,0.320,1.643,16.0
2021-01-03,19:19:33.493344,5.14,0.322,1.653,15.9
2021-01-03,19:19:34.784410,5.14,0.322,1.654,15.9
2021-01-03,19:19:36.105653,5.10,0.616,3.141,8.2
2021-01-03,19:19:37.396770,5.11,0.470,2.402,10.8
2021-01-03,19:19:38.718091,5.07,0.510,2.586,9.9
2021-01-03,19:19:40.009348,5.09,0.549,2.794,9.2
2021-01-03,19:19:41.330631,5.09,0.525,2.669,9.6
2021-01-03,19:19:42.622135,5.08,0.621,3.153,8.1
2021-01-03,19:19:43.955746,5.08,0.753,3.822,6.7
2021-01-03,19:19:45.238518,5.08,0.705,3.579,7.2
2021-01-03,19:19:46.555759,5.15,0.345,1.774,14.9
2021-01-03,19:19:47.846925,5.15,0.294,1.515,17.4
2021-01-03,19:19:49.168214,5.08,0.601,3.052,8.4
2021-01-03,19:19:50.459436,5.11,0.498,2.545,10.2
2021-01-03,19:19:51.780636,5.11,0.517,2.641,9.8
2021-01-03,19:19:53.072029,5.11,0.471,2.406,10.8
2021-01-03,19:19:54.393408,5.11,0.460,2.346,11.1
2021-01-03,19:19:55.684543,5.09,0.523,2.659,9.7
2021-01-03,19:19:57.008215,5.08,0.605,3.075,8.4
2021-01-03,19:19:58.296865,5.10,0.541,2.760,9.4
2021-01-03,19:19:59.618369,5.07,0.533,2.702,9.5
2021-01-03,19:20:00.909730,5.10,0.527,2.683,9.6
2021-01-03,19:20:02.230724,5.10,0.521,2.656,9.7
2021-01-03,19:20:03.522073,5.09,0.511,2.604,9.9
2021-01-03,19:20:04.843401,5.06,0.624,3.158,8.1
2021-01-03,19:20:06.134723,5.13,0.367,1.881,13.9
2021-01-03,19:20:07.455811,5.08,0.585,2.975,8.6
2021-01-03,19:20:08.747135,5.04,0.642,3.234,7.8
2021-01-03,19:20:10.068582,5.12,0.489,2.502,10.4
2021-01-03,19:20:11.359601,5.10,0.501,2.555,10.1
2021-01-03,19:20:12.680752,5.14,0.656,3.372,7.8
2021-01-03,19:20:13.972119,5.15,0.326,1.679,15.7
2021-01-03,19:20:15.293776,5.11,0.564,2.883,9.0
2021-01-03,19:20:16.584795,5.09,0.367,1.868,13.8
2021-01-03,19:20:17.906231,5.08,0.332,1.682,15.3
2021-01-03,19:20:19.197123,5.11,0.601,3.069,8.5
2021-01-03,19:20:20.518363,5.09,0.561,2.856,9.0
2021-01-03,19:20:21.815977,5.11,0.495,2.530,10.3
2021-01-03,19:20:23.129691,5.05,0.579,2.923,8.7
2021-01-03,19:20:24.422270,5.14,0.367,1.883,14.0
2021-01-03,19:20:25.743441,5.14,0.327,1.681,15.7
2021-01-03,19:20:27.033398,5.14,0.327,1.681,15.7
2021-01-03,19:20:28.354930,5.14,0.326,1.673,15.7
2021-01-03,19:20:29.645996,5.14,0.324,1.667,15.8
2021-01-03,19:20:30.967234,5.14,0.324,1.663,15.8
2021-01-03,19:20:32.258542,5.14,0.325,1.669,15.8
2021-01-03,19:20:33.579744,5.14,0.324,1.663,15.8
2021-01-03,19:20:34.871130,5.14,0.322,1.655,15.9
2021-01-03,19:20:36.192410,5.14,0.320,1.645,16.0
2021-01-03,19:20:37.483585,5.09,0.677,3.446,7.5
2021-01-03,19:20:38.804977,5.09,0.487,2.477,10.4
2021-01-03,19:20:40.096042,5.08,0.538,2.733,9.4
2021-01-03,19:20:41.417358,5.07,0.569,2.888,8.9
2021-01-03,19:20:42.708946,5.08,0.492,2.500,10.3
2021-01-03,19:20:44.029789,5.05,0.740,3.737,6.8
2021-01-03,19:20:45.321272,5.13,0.334,1.714,15.3
2021-01-03,19:20:46.641205,5.14,0.451,2.317,11.4
2021-01-03,19:20:47.932287,5.08,0.675,3.431,7.5
2021-01-03,19:20:49.253670,5.10,0.374,1.907,13.6
2021-01-03,19:20:50.545113,5.11,0.674,3.445,7.5
2021-01-03,19:20:51.866133,5.09,0.567,2.886,8.9
2021-01-03,19:20:53.158664,5.10,0.344,1.753,14.8
2021-01-03,19:20:54.479881,5.08,0.534,2.709,9.5
2021-01-03,19:20:55.771537,5.10,0.606,3.091,8.4
2021-01-03,19:20:57.092568,5.11,0.548,2.798,9.3
2021-01-03,19:20:58.383570,5.10,0.559,2.850,9.1
2021-01-03,19:20:59.705169,5.08,0.578,2.939,8.7
2021-01-03,19:21:00.996231,5.10,0.478,2.436,10.6
2021-01-03,19:21:02.316143,5.14,0.320,1.645,16.0
2021-01-03,19:21:03.607638,5.15,0.456,2.349,11.2
2021-01-03,19:21:04.929156,5.08,0.556,2.827,9.1
2021-01-03,19:21:06.220017,5.09,0.364,1.851,13.9
2021-01-03,19:21:07.541402,5.07,0.460,2.331,11.0
2021-01-03,19:21:08.832441,5.11,0.524,2.676,9.7
2021-01-03,19:21:10.153768,5.09,0.480,2.442,10.6
2021-01-03,19:21:11.445088,5.08,0.485,2.462,10.4
2021-01-03,19:21:12.766311,5.10,0.544,2.771,9.3
2021-01-03,19:21:14.057718,5.08,0.573,2.914,8.8
2021-01-03,19:21:15.377730,5.10,0.586,2.990,8.6
2021-01-03,19:21:16.668789,5.08,0.530,2.696,9.5
2021-01-03,19:21:17.990420,5.11,0.474,2.420,10.7
2021-01-03,19:21:19.281378,5.10,0.604,3.078,8.4
2021-01-03,19:21:20.604161,5.11,0.302,1.540,16.9
2021-01-03,19:21:21.894056,5.14,0.460,2.360,11.1
2021-01-03,19:21:23.215109,5.11,0.525,2.684,9.7
2021-01-03,19:21:24.506476,5.08,0.454,2.303,11.1
2021-01-03,19:21:25.827655,5.08,0.600,3.043,8.4
2021-01-03,19:21:27.118863,5.12,0.582,2.976,8.7
2021-01-03,19:21:28.440183,5.09,0.519,2.640,9.8
2021-01-03,19:21:29.731371,5.11,0.530,2.710,9.6
2021-01-03,19:21:31.052703,5.14,0.352,1.812,14.5
2021-01-03,19:21:32.347731,5.11,0.290,1.482,17.6
2021-01-03,19:21:33.665193,5.09,0.557,2.836,9.1
2021-01-03,19:21:34.956629,5.10,0.630,3.211,8.0
2021-01-03,19:21:36.280315,5.12,0.483,2.473,10.5
2021-01-03,19:21:37.571487,5.11,0.473,2.418,10.7
2021-01-03,19:21:38.890558,5.11,0.530,2.704,9.6
2021-01-03,19:21:40.181392,5.13,0.311,1.594,16.5
2021-01-03,19:21:41.502821,5.11,0.291,1.485,17.5
2021-01-03,19:21:42.795511,5.07,0.585,2.967,8.6
2021-01-03,19:21:44.115267,5.13,0.465,2.384,11.0
2021-01-03,19:21:45.406749,5.14,0.639,3.284,8.0
2021-01-03,19:21:46.727799,5.12,0.527,2.698,9.7
2021-01-03,19:21:48.018895,5.10,0.431,2.197,11.8
2021-01-03,19:21:49.340430,5.11,0.497,2.536,10.2
2021-01-03,19:21:50.631576,5.13,0.292,1.498,17.5
2021-01-03,19:21:51.959256,5.11,0.291,1.485,17.5
2021-01-03,19:21:53.244291,5.07,0.583,2.956,8.6
2021-01-03,19:21:54.565380,5.13,0.565,2.899,9.0
2021-01-03,19:21:55.856593,5.08,0.565,2.865,8.9
2021-01-03,19:21:57.177818,5.08,0.431,2.189,11.7
2021-01-03,19:21:58.469324,5.11,0.537,2.742,9.5
2021-01-03,19:21:59.790563,5.10,0.322,1.641,15.8
2021-01-03,19:22:01.081734,5.14,0.290,1.493,17.7
2021-01-03,19:22:02.403068,5.09,0.446,2.267,11.4
2021-01-03,19:22:03.694113,5.13,0.569,2.920,9.0
2021-01-03,19:22:05.015331,5.09,0.616,3.133,8.2
2021-01-03,19:22:06.306739,5.08,0.430,2.186,11.8
2021-01-03,19:22:07.628103,5.10,0.534,2.723,9.5
2021-01-03,19:22:08.919258,5.10,0.486,2.477,10.4
2021-01-03,19:22:10.239406,5.14,0.312,1.605,16.4
2021-01-03,19:22:11.530503,5.15,0.409,2.108,12.5
2021-01-03,19:22:12.851635,5.06,0.565,2.858,8.9
2021-01-03,19:22:14.143032,5.09,0.383,1.950,13.2
2021-01-03,19:22:15.465583,5.12,0.535,2.741,9.5
2021-01-03,19:22:16.754268,5.12,0.426,2.179,12.0
2021-01-03,19:22:18.075525,5.11,0.495,2.530,10.3
2021-01-03,19:22:19.366806,5.13,0.532,2.731,9.6
2021-01-03,19:22:20.688083,5.14,0.314,1.617,16.3
2021-01-03,19:22:21.979329,5.11,0.551,2.817,9.2
2021-01-03,19:22:23.300566,5.13,0.526,2.701,9.7
2021-01-03,19:22:24.591934,5.07,0.576,2.921,8.8
2021-01-03,19:22:25.913205,5.08,0.427,2.171,11.8
2021-01-03,19:22:27.204407,5.12,0.543,2.776,9.4
2021-01-03,19:22:28.525789,5.11,0.454,2.316,11.2
2021-01-03,19:22:29.815631,5.15,0.362,1.863,14.2
2021-01-03,19:22:31.136826,5.15,0.408,2.101,12.6
2021-01-03,19:22:32.428301,5.08,0.547,2.781,9.2
2021-01-03,19:22:33.749469,5.07,0.375,1.902,13.5
2021-01-03,19:22:35.040684,5.09,0.602,3.064,8.4
2021-01-03,19:22:36.362172,5.12,0.496,2.540,10.3
2021-01-03,19:22:37.653263,5.10,0.447,2.278,11.4
2021-01-03,19:22:38.974623,5.14,0.494,2.539,10.4
2021-01-03,19:22:40.264601,5.15,0.302,1.552,17.0
2021-01-03,19:22:41.585742,5.11,0.547,2.791,9.3
2021-01-03,19:22:42.876940,5.10,0.361,1.837,14.1
2021-01-03,19:22:44.198236,5.09,0.637,3.245,7.9
2021-01-03,19:22:45.488546,5.12,0.431,2.204,11.8
2021-01-03,19:22:46.809591,5.10,0.498,2.540,10.2
2021-01-03,19:22:48.100690,5.10,0.587,2.993,8.6
2021-01-03,19:22:49.421992,5.15,0.315,1.621,16.3
2021-01-03,19:22:50.713634,5.11,0.378,1.932,13.5
2021-01-03,19:22:52.033310,5.06,0.427,2.158,11.8
2021-01-03,19:22:53.324556,5.07,0.639,3.242,7.9
2021-01-03,19:22:54.645924,5.12,0.435,2.225,11.7
2021-01-03,19:22:55.937029,5.10,0.533,2.721,9.5
2021-01-03,19:22:57.262233,5.10,0.546,2.788,9.3
2021-01-03,19:22:58.549590,5.14,0.291,1.493,17.6
2021-01-03,19:22:59.870820,5.11,0.295,1.506,17.3
2021-01-03,19:23:01.162065,5.06,0.587,2.971,8.6
2021-01-03,19:23:02.482192,5.13,0.609,3.122,8.4
2021-01-03,19:23:03.774610,5.07,0.513,2.599,9.8
2021-01-03,19:23:05.094767,5.11,0.427,2.180,11.9
2021-01-03,19:23:06.385842,5.09,0.506,2.574,10.0
2021-01-03,19:23:07.707277,5.14,0.317,1.629,16.1
2021-01-03,19:23:08.998349,5.14,0.290,1.489,17.7
2021-01-03,19:23:10.319647,5.09,0.559,2.845,9.1
2021-01-03,19:23:11.610959,5.13,0.439,2.251,11.7
2021-01-03,19:23:12.931139,5.07,0.634,3.215,8.0
2021-01-03,19:23:14.222562,5.12,0.428,2.187,11.9
2021-01-03,19:23:15.543486,5.10,0.441,2.248,11.5
2021-01-03,19:23:16.834716,5.11,0.507,2.590,10.0
2021-01-03,19:23:18.156155,5.13,0.340,1.741,15.1
2021-01-03,19:23:19.447218,5.14,0.298,1.534,17.2
2021-01-03,19:23:20.768458,5.07,0.560,2.841,9.0
2021-01-03,19:23:22.059795,5.11,0.432,2.208,11.8
2021-01-03,19:23:23.381161,5.07,0.543,2.756,9.3
2021-01-03,19:23:24.672241,5.12,0.427,2.185,11.9
2021-01-03,19:23:25.993513,5.10,0.490,2.503,10.4
2021-01-03,19:23:27.284761,5.11,0.504,2.576,10.1
2021-01-03,19:23:28.604723,5.14,0.290,1.489,17.7
2021-01-03,19:23:29.896223,5.12,0.499,2.554,10.2
2021-01-03,19:23:31.217248,5.12,0.604,3.089,8.4
2021-01-03,19:23:32.508598,5.08,0.377,1.913,13.4
2021-01-03,19:23:33.829774,5.10,0.429,2.185,11.8
2021-01-03,19:23:35.121009,5.11,0.516,2.638,9.8
2021-01-03,19:23:36.442327,5.09,0.475,2.419,10.7
2021-01-03,19:23:37.733586,5.15,0.325,1.671,15.8
2021-01-03,19:23:39.055028,5.15,0.460,2.369,11.1
2021-01-03,19:23:40.345271,5.08,0.666,3.381,7.6
2021-01-03,19:23:41.666296,5.07,0.604,3.064,8.3
2021-01-03,19:23:42.957408,5.12,0.585,2.992,8.7
2021-01-03,19:23:44.277367,5.10,0.499,2.547,10.2
2021-01-03,19:23:45.568608,5.11,0.515,2.633,9.9
2021-01-03,19:23:46.889904,5.14,0.329,1.687,15.6
2021-01-03,19:23:48.181193,5.12,0.289,1.479,17.7
2021-01-03,19:23:49.502407,5.09,0.632,3.215,8.0
2021-01-03,19:23:50.793885,5.13,0.538,2.763,9.5
2021-01-03,19:23:52.114845,5.10,0.402,2.047,12.6
2021-01-03,19:23:53.404867,5.11,0.454,2.319,11.2
2021-01-03,19:23:54.726443,5.11,0.483,2.467,10.5
2021-01-03,19:23:56.017667,5.10,0.494,2.518,10.3
2021-01-03,19:23:57.338717,5.15,0.312,1.605,16.4
2021-01-03,19:23:58.630119,5.11,0.385,1.968,13.2
2021-01-03,19:23:59.960069,5.06,0.426,2.154,11.8
2021-01-03,19:24:01.241319,5.07,0.610,3.093,8.3
2021-01-03,19:24:02.562477,5.11,0.427,2.182,11.9
2021-01-03,19:24:03.853734,5.09,0.471,2.401,10.8
2021-01-03,19:24:05.175072,5.13,0.356,1.828,14.4
2021-01-03,19:24:06.466456,5.14,0.320,1.642,16.0
2021-01-03,19:24:07.787514,5.13,0.318,1.633,16.1
2021-01-03,19:24:09.079186,5.14,0.325,1.670,15.8
2021-01-03,19:24:10.400156,5.14,0.319,1.638,16.1
2021-01-03,19:24:11.691401,5.14,0.347,1.785,14.8
2021-01-03,19:24:13.015140,5.14,0.321,1.649,16.0
2021-01-03,19:24:14.306545,5.14,0.319,1.640,16.1
2021-01-03,19:24:15.623903,5.14,0.317,1.627,16.2
2021-01-03,19:24:16.915327,5.14,0.317,1.629,16.2
2021-01-03,19:24:18.238858,5.11,0.321,1.640,15.9
2021-01-03,19:24:19.530313,5.14,0.316,1.626,16.2
2021-01-03,19:24:20.848934,5.12,0.465,2.384,11.0
2021-01-03,19:24:22.140425,5.09,0.515,2.621,9.8
2021-01-03,19:24:23.462916,5.08,0.354,1.800,14.3
2021-01-03,19:24:24.752963,5.11,0.534,2.732,9.5
2021-01-03,19:24:26.074238,5.11,0.545,2.785,9.3
2021-01-03,19:24:27.365114,5.10,0.501,2.557,10.1
2021-01-03,19:24:28.686431,5.14,0.334,1.715,15.4
2021-01-03,19:24:29.977790,5.14,0.289,1.488,17.7
2021-01-03,19:24:31.299001,5.08,0.638,3.241,7.9
2021-01-03,19:24:32.590219,5.12,0.589,3.013,8.6
2021-01-03,19:24:33.911427,5.12,0.479,2.452,10.6
2021-01-03,19:24:35.211543,5.11,0.425,2.172,11.9
2021-01-03,19:24:36.524153,5.10,0.496,2.526,10.2
2021-01-03,19:24:37.815414,5.08,0.330,1.673,15.4
2021-01-03,19:24:39.136475,5.15,0.289,1.486,17.8
2021-01-03,19:24:40.426760,5.08,0.438,2.227,11.6
2021-01-03,19:24:41.747840,5.12,0.556,2.843,9.2
2021-01-03,19:24:43.038969,5.08,0.558,2.830,9.1
2021-01-03,19:24:44.360481,5.10,0.427,2.181,11.9
2021-01-03,19:24:45.651504,5.13,0.497,2.547,10.3
2021-01-03,19:24:46.972863,5.13,0.386,1.980,13.2
2021-01-03,19:24:48.262990,5.13,0.316,1.621,16.2
2021-01-03,19:24:49.584270,5.12,0.432,2.208,11.8
2021-01-03,19:24:50.875341,5.13,0.312,1.599,16.4
2021-01-03,19:24:52.197907,5.08,0.673,3.419,7.5
2021-01-03,19:24:53.487897,5.13,0.573,2.940,8.9
2021-01-03,19:24:54.809193,5.13,0.506,2.597,10.1
2021-01-03,19:24:56.100590,5.15,0.290,1.493,17.7
2021-01-03,19:24:57.421620,5.11,0.554,2.834,9.2
2021-01-03,19:24:58.711656,5.07,0.433,2.197,11.6
2021-01-03,19:25:00.033263,5.09,0.514,2.617,9.9
2021-01-03,19:25:01.324229,5.15,0.332,1.708,15.5
2021-01-03,19:25:02.645855,5.15,0.457,2.353,11.2
2021-01-03,19:25:03.936779,5.08,0.620,3.149,8.1
2021-01-03,19:25:05.257958,5.09,0.357,1.817,14.2
2021-01-03,19:25:06.549429,5.10,0.579,2.954,8.8
2021-01-03,19:25:07.870550,5.15,0.313,1.612,16.4
2021-01-03,19:25:09.161734,5.15,0.460,2.368,11.1
2021-01-03,19:25:10.481791,5.09,0.521,2.653,9.7
2021-01-03,19:25:11.773064,5.09,0.354,1.801,14.3
2021-01-03,19:25:13.094259,5.10,0.362,1.845,14.0
2021-01-03,19:25:14.385734,5.15,0.294,1.512,17.5
2021-01-03,19:25:15.706697,5.11,0.288,1.470,17.7
2021-01-03,19:25:16.998065,5.05,0.589,2.975,8.5
2021-01-03,19:25:18.318319,5.09,0.520,2.647,9.7
2021-01-03,19:25:19.609297,5.09,0.335,1.707,15.1
2021-01-03,19:25:20.930581,5.15,0.309,1.591,16.6
2021-01-03,19:25:22.221881,5.08,0.461,2.340,11.0
2021-01-03,19:25:23.543112,5.10,0.357,1.823,14.2
2021-01-03,19:25:24.834362,5.13,0.495,2.540,10.3
2021-01-03,19:25:26.154418,5.14,0.504,2.589,10.2
2021-01-03,19:25:27.445657,5.15,0.309,1.592,16.6
2021-01-03,19:25:28.766953,5.11,0.553,2.828,9.2
2021-01-03,19:25:30.061063,5.06,0.428,2.162,11.8
2021-01-03,19:25:31.379473,5.08,0.515,2.616,9.8
2021-01-03,19:25:32.670812,5.15,0.333,1.715,15.4
2021-01-03,19:25:33.994618,5.15,0.428,2.203,12.0
2021-01-03,19:25:35.283090,5.08,0.553,2.807,9.1
2021-01-03,19:25:36.604569,5.09,0.489,2.487,10.4
2021-01-03,19:25:37.895711,5.14,0.518,2.662,9.9
2021-01-03,19:25:39.219640,5.15,0.289,1.487,17.8
2021-01-03,19:25:40.510817,5.11,0.570,2.909,8.9
2021-01-03,19:25:41.829550,5.13,0.494,2.538,10.3
2021-01-03,19:25:43.120743,5.09,0.481,2.444,10.5
2021-01-03,19:25:44.441975,5.14,0.307,1.578,16.7
2021-01-03,19:25:45.735835,5.15,0.287,1.479,17.9
2021-01-03,19:25:47.063426,5.08,0.577,2.932,8.8
2021-01-03,19:25:48.346005,5.08,0.431,2.191,11.7
2021-01-03,19:25:49.668291,5.09,0.337,1.714,15.1
2021-01-03,19:25:50.959524,5.14,0.292,1.504,17.5
2021-01-03,19:25:52.280727,5.08,0.461,2.341,11.0
2021-01-03,19:25:53.572106,5.11,0.658,3.363,7.7
2021-01-03,19:25:54.893373,5.10,0.566,2.884,9.0
2021-01-03,19:25:56.184746,5.13,0.312,1.601,16.4
2021-01-03,19:25:57.505781,5.13,0.290,1.489,17.6
2021-01-03,19:25:58.796014,5.09,0.520,2.648,9.7
2021-01-03,19:26:00.117337,5.13,0.527,2.703,9.7
2021-01-03,19:26:01.408430,5.09,0.507,2.580,10.0
2021-01-03,19:26:02.729978,5.15,0.302,1.553,17.0
2021-01-03,19:26:04.020918,5.11,0.356,1.823,14.3
2021-01-03,19:26:05.342126,5.05,0.428,2.161,11.8
2021-01-03,19:26:06.632213,5.10,0.587,2.992,8.6
2021-01-03,19:26:07.963403,5.15,0.327,1.681,15.7
2021-01-03,19:26:09.244903,5.13,0.290,1.487,17.6
2021-01-03,19:26:10.566085,5.08,0.673,3.420,7.5
2021-01-03,19:26:11.857202,5.12,0.461,2.359,11.1
2021-01-03,19:26:13.178475,5.09,0.563,2.863,9.0
2021-01-03,19:26:14.468770,5.15,0.311,1.599,16.5
2021-01-03,19:26:15.789709,5.14,0.443,2.274,11.6
2021-01-03,19:26:17.080974,5.09,0.592,3.011,8.5
2021-01-03,19:26:18.402325,5.10,0.439,2.241,11.6
2021-01-03,19:26:19.693392,5.13,0.540,2.770,9.5
2021-01-03,19:26:21.014744,5.14,0.289,1.486,17.7
2021-01-03,19:26:22.306077,5.12,0.513,2.621,9.9
2021-01-03,19:26:23.627364,5.13,0.567,2.909,9.0
2021-01-03,19:26:24.918527,5.09,0.499,2.540,10.1
2021-01-03,19:26:26.239806,5.14,0.302,1.551,17.0
2021-01-03,19:26:27.531030,5.14,0.304,1.564,16.8
2021-01-03,19:26:28.852318,5.07,0.582,2.949,8.7
2021-01-03,19:26:30.143582,5.09,0.427,2.173,11.9
2021-01-03,19:26:31.463587,5.09,0.335,1.707,15.1
2021-01-03,19:26:32.754949,5.15,0.291,1.500,17.6
2021-01-03,19:26:34.077352,5.08,0.456,2.313,11.1
2021-01-03,19:26:35.368607,5.11,0.678,3.467,7.5
2021-01-03,19:26:36.689863,5.10,0.560,2.859,9.1
2021-01-03,19:26:37.981190,5.11,0.320,1.633,15.9
2021-01-03,19:26:39.302380,5.14,0.291,1.497,17.6
2021-01-03,19:26:40.593577,5.09,0.482,2.451,10.5
2021-01-03,19:26:41.914990,5.12,0.450,2.304,11.3
2021-01-03,19:26:43.206178,5.09,0.531,2.706,9.5
2021-01-03,19:26:44.527378,5.14,0.407,2.091,12.6
2021-01-03,19:26:45.818660,5.15,0.310,1.596,16.6
2021-01-03,19:26:47.140094,5.10,0.551,2.807,9.2
2021-01-03,19:26:48.431130,5.11,0.357,1.822,14.3
2021-01-03,19:26:49.755269,5.10,0.517,2.635,9.8
2021-01-03,19:26:51.043642,5.15,0.330,1.700,15.5
2021-01-03,19:26:52.364966,5.11,0.363,1.858,14.0
2021-01-03,19:26:53.656231,5.15,0.435,2.238,11.8
2021-01-03,19:26:54.977416,5.08,0.538,2.730,9.4
2021-01-03,19:26:56.270433,5.14,0.351,1.806,14.6
2021-01-03,19:26:57.589988,5.15,0.574,2.955,8.9
2021-01-03,19:26:58.880209,5.06,0.485,2.452,10.4
2021-01-03,19:27:00.203852,5.11,0.406,2.071,12.5
2021-01-03,19:27:01.492528,5.10,0.516,2.631,9.8
2021-01-03,19:27:02.812584,5.10,0.516,2.633,9.8
2021-01-03,19:27:04.104015,5.07,0.489,2.477,10.3
2021-01-03,19:27:05.425064,5.14,0.359,1.842,14.3
2021-01-03,19:27:06.716306,5.14,0.321,1.649,16.0
2021-01-03,19:27:08.037636,5.12,0.354,1.810,14.4
2021-01-03,19:27:09.328828,5.14,0.320,1.644,16.0
2021-01-03,19:27:10.649048,5.14,0.317,1.631,16.2
2021-01-03,19:27:11.940314,5.14,0.317,1.632,16.2
2021-01-03,19:27:13.261153,5.13,0.349,1.792,14.6
2021-01-03,19:27:14.552647,5.14,0.328,1.684,15.6
2021-01-03,19:27:15.872816,5.14,0.316,1.625,16.2
2021-01-03,19:27:17.163813,5.14,0.341,1.754,15.0
2021-01-03,19:27:18.485456,5.14,0.319,1.641,16.1
2021-01-03,19:27:19.776486,5.14,0.316,1.622,16.2
2021-01-03,19:27:21.097987,5.11,0.324,1.657,15.7
2021-01-03,19:27:22.386335,5.14,0.357,1.835,14.4
2021-01-03,19:27:23.708951,5.11,0.467,2.388,10.9
2021-01-03,19:27:25.000362,5.09,0.556,2.831,9.1
2021-01-03,19:27:26.321460,5.08,0.506,2.573,10.0
2021-01-03,19:27:27.613102,5.14,0.313,1.607,16.4
2021-01-03,19:27:28.932689,5.13,0.430,2.208,11.9
2021-01-03,19:27:30.224173,5.09,0.556,2.830,9.1
2021-01-03,19:27:31.545211,5.10,0.427,2.177,11.9
2021-01-03,19:27:32.835314,5.10,0.539,2.745,9.4
2021-01-03,19:27:34.156514,5.10,0.509,2.594,10.0
2021-01-03,19:27:35.447824,5.10,0.548,2.793,9.3
2021-01-03,19:27:36.769017,5.07,0.395,2.003,12.8
2021-01-03,19:27:38.060364,5.09,0.473,2.406,10.7
2021-01-03,19:27:39.381561,5.03,0.453,2.278,11.1
2021-01-03,19:27:40.671507,5.10,0.552,2.819,9.2
2021-01-03,19:27:41.992830,5.08,0.527,2.673,9.6
2021-01-03,19:27:43.284109,5.14,0.326,1.677,15.7
2021-01-03,19:27:44.604124,5.14,0.441,2.267,11.6
2021-01-03,19:27:45.895268,5.09,0.673,3.423,7.5
2021-01-03,19:27:47.216785,5.07,0.600,3.040,8.4
2021-01-03,19:27:48.508038,5.13,0.386,1.983,13.2
2021-01-03,19:27:49.829110,5.13,0.343,1.761,14.9
2021-01-03,19:27:51.120651,5.12,0.568,2.906,9.0
2021-01-03,19:27:52.440357,5.10,0.502,2.561,10.1
2021-01-03,19:27:53.731708,5.08,0.470,2.386,10.7
2021-01-03,19:27:55.052972,5.09,0.483,2.455,10.5
2021-01-03,19:27:56.344156,5.05,0.452,2.284,11.1
2021-01-03,19:27:57.665586,5.13,0.344,1.766,14.9
2021-01-03,19:27:58.956727,5.12,0.356,1.823,14.3
2021-01-03,19:28:00.277949,5.10,0.546,2.782,9.3
2021-01-03,19:28:01.569384,5.08,0.342,1.739,14.8
2021-01-03,19:28:02.890545,5.15,0.289,1.487,17.8
2021-01-03,19:28:04.181769,5.08,0.434,2.207,11.7
2021-01-03,19:28:05.503212,5.12,0.403,2.060,12.7
2021-01-03,19:28:06.796753,5.09,0.610,3.104,8.3
2021-01-03,19:28:08.114483,5.10,0.462,2.359,11.0
2021-01-03,19:28:09.406859,5.10,0.513,2.616,9.9
2021-01-03,19:28:10.728084,5.07,0.509,2.583,9.9
2021-01-03,19:28:12.019504,5.08,0.488,2.480,10.4
2021-01-03,19:28:13.340905,5.10,0.493,2.515,10.3
2021-01-03,19:28:14.630567,5.11,0.471,2.408,10.8
2021-01-03,19:28:15.961878,5.07,0.520,2.637,9.7
2021-01-03,19:28:17.243253,5.07,0.327,1.660,15.5
2021-01-03,19:28:18.564478,5.15,0.324,1.666,15.8
2021-01-03,19:28:19.855623,5.08,0.443,2.247,11.4
2021-01-03,19:28:21.176825,5.12,0.360,1.843,14.1
2021-01-03,19:28:22.468113,5.11,0.665,3.396,7.6
2021-01-03,19:28:23.789550,5.11,0.483,2.468,10.5
2021-01-03,19:28:25.080600,5.10,0.518,2.642,9.8
2021-01-03,19:28:26.401941,5.08,0.489,2.479,10.3
2021-01-03,19:28:27.693360,5.08,0.503,2.555,10.1
2021-01-03,19:28:29.013066,5.07,0.516,2.616,9.8
2021-01-03,19:28:30.304453,5.11,0.485,2.477,10.5
2021-01-03,19:28:31.625831,5.05,0.552,2.789,9.1
2021-01-03,19:28:32.917130,5.08,0.370,1.881,13.7
2021-01-03,19:28:34.238335,5.15,0.315,1.620,16.3
2021-01-03,19:28:35.529532,5.09,0.463,2.358,10.9
2021-01-03,19:28:36.849503,5.09,0.366,1.863,13.9
2021-01-03,19:28:38.141086,5.07,0.635,3.222,7.9
2021-01-03,19:28:39.461939,5.11,0.543,2.776,9.3
2021-01-03,19:28:40.753113,5.09,0.515,2.619,9.8
2021-01-03,19:28:42.074639,5.10,0.527,2.686,9.6
2021-01-03,19:28:43.364429,5.08,0.501,2.546,10.1
2021-01-03,19:28:44.685769,5.10,0.568,2.900,8.9
2021-01-03,19:28:45.977228,5.11,0.561,2.867,9.1
2021-01-03,19:28:47.298342,5.08,0.515,2.619,9.8
2021-01-03,19:28:48.589853,5.10,0.558,2.844,9.1
2021-01-03,19:28:49.910940,5.14,0.292,1.499,17.6
2021-01-03,19:28:51.202216,5.11,0.304,1.554,16.8
2021-01-03,19:28:52.523462,5.07,0.438,2.218,11.5
2021-01-03,19:28:53.814661,5.09,0.662,3.367,7.6
2021-01-03,19:28:55.134821,5.11,0.495,2.528,10.3
2021-01-03,19:28:56.425881,5.13,0.425,2.179,12.0
2021-01-03,19:28:57.747177,5.14,0.321,1.649,16.0
2021-01-03,19:28:59.038537,5.12,0.531,2.723,9.6
2021-01-03,19:29:00.359654,5.11,0.604,3.083,8.4
2021-01-03,19:29:01.651226,5.10,0.519,2.647,9.8
2021-01-03,19:29:02.972152,5.08,0.549,2.792,9.2
2021-01-03,19:29:04.263350,5.09,0.376,1.912,13.5
2021-01-03,19:29:05.583344,5.14,0.322,1.653,15.9
2021-01-03,19:29:06.874593,5.14,0.317,1.628,16.2
2021-01-03,19:29:08.195885,5.14,0.318,1.636,16.1
2021-01-03,19:29:09.487293,5.14,0.318,1.634,16.1
2021-01-03,19:29:10.808488,5.14,0.318,1.633,16.1
2021-01-03,19:29:12.098406,5.14,0.317,1.627,16.2
2021-01-03,19:29:13.419768,5.10,0.354,1.806,14.3
2021-01-03,19:29:14.710954,5.09,0.493,2.510,10.3
2021-01-03,19:29:16.034739,5.13,0.626,3.213,8.1
2021-01-03,19:29:17.323596,5.15,0.298,1.534,17.2
2021-01-03,19:29:18.644672,5.11,0.581,2.968,8.7
2021-01-03,19:29:19.934791,5.06,0.433,2.193,11.6
2021-01-03,19:29:21.256170,5.05,0.402,2.033,12.5
2021-01-03,19:29:22.547277,5.11,0.474,2.419,10.7
2021-01-03,19:29:23.868467,5.10,0.494,2.520,10.3
2021-01-03,19:29:25.159828,5.10,0.585,2.982,8.7
2021-01-03,19:29:26.479841,5.10,0.583,2.974,8.7
2021-01-03,19:29:27.771103,5.10,0.492,2.509,10.3
2021-01-03,19:29:29.091103,5.13,0.355,1.822,14.4
2021-01-03,19:29:30.382362,5.13,0.348,1.786,14.7
2021-01-03,19:29:31.703548,5.10,0.369,1.880,13.8
2021-01-03,19:29:32.993775,5.10,0.527,2.685,9.6
2021-01-03,19:29:34.314803,5.14,0.336,1.727,15.2
2021-01-03,19:29:35.606138,5.15,0.404,2.079,12.7
2021-01-03,19:29:36.927512,5.06,0.557,2.815,9.0
2021-01-03,19:29:38.217437,5.10,0.385,1.965,13.2
2021-01-03,19:29:39.538970,5.11,0.496,2.535,10.2
2021-01-03,19:29:40.829858,5.11,0.528,2.696,9.6
2021-01-03,19:29:42.156199,5.10,0.513,2.613,9.9
2021-01-03,19:29:43.441350,5.07,0.542,2.745,9.3
2021-01-03,19:29:44.762416,5.10,0.532,2.716,9.5
2021-01-03,19:29:46.053897,5.04,0.471,2.372,10.6
2021-01-03,19:29:47.378926,5.10,0.528,2.689,9.6
2021-01-03,19:29:48.664975,5.08,0.521,2.648,9.7
2021-01-03,19:29:49.986163,5.14,0.304,1.560,16.9
2021-01-03,19:29:51.277515,5.15,0.468,2.409,11.0
2021-01-03,19:29:52.600154,5.10,0.533,2.720,9.5
2021-01-03,19:29:53.888937,5.08,0.356,1.811,14.2
2021-01-03,19:29:55.210191,5.10,0.470,2.399,10.8
2021-01-03,19:29:56.499971,5.10,0.461,2.351,11.0
2021-01-03,19:29:57.823756,5.11,0.514,2.623,9.9
2021-01-03,19:29:59.113842,5.07,0.463,2.344,10.9
2021-01-03,19:30:00.433666,5.09,0.477,2.430,10.6
2021-01-03,19:30:01.724007,5.06,0.470,2.378,10.7
2021-01-03,19:30:03.047590,5.05,0.531,2.680,9.5
2021-01-03,19:30:04.336559,5.08,0.515,2.615,9.8
2021-01-03,19:30:05.656556,5.13,0.336,1.724,15.2
2021-01-03,19:30:06.947621,5.14,0.416,2.141,12.3
2021-01-03,19:30:08.268985,5.05,0.566,2.862,8.9
2021-01-03,19:30:09.560204,5.11,0.387,1.979,13.1
2021-01-03,19:30:10.881335,5.05,0.363,1.836,13.9
2021-01-03,19:30:12.171445,5.10,0.470,2.393,10.8
2021-01-03,19:30:13.493004,5.10,0.524,2.670,9.7
2021-01-03,19:30:14.783907,5.09,0.462,2.351,11.0
2021-01-03,19:30:16.105501,5.07,0.484,2.454,10.4
2021-01-03,19:30:17.396439,5.11,0.484,2.469,10.5
2021-01-03,19:30:18.717541,5.11,0.519,2.650,9.8
2021-01-03,19:30:20.007608,5.12,0.480,2.457,10.6
2021-01-03,19:30:21.329175,5.10,0.636,3.243,8.0
2021-01-03,19:30:22.620526,5.14,0.307,1.578,16.7
2021-01-03,19:30:23.941835,5.11,0.295,1.510,17.2
2021-01-03,19:30:25.242889,5.05,0.580,2.933,8.7
2021-01-03,19:30:26.554030,5.08,0.636,3.233,7.9
2021-01-03,19:30:27.845439,5.10,0.588,2.998,8.6
2021-01-03,19:30:29.165277,5.10,0.477,2.431,10.6
2021-01-03,19:30:30.456611,5.10,0.509,2.595,10.0
2021-01-03,19:30:31.778092,5.07,0.506,2.566,10.0
2021-01-03,19:30:33.068987,5.08,0.481,2.443,10.5
2021-01-03,19:30:34.390341,5.11,0.475,2.424,10.7
2021-01-03,19:30:35.680614,5.09,0.508,2.588,10.0
2021-01-03,19:30:37.001413,5.13,0.384,1.966,13.3
2021-01-03,19:30:38.293047,5.12,0.407,2.080,12.5
2021-01-03,19:30:39.614130,5.14,0.345,1.775,14.8
2021-01-03,19:30:40.905519,5.14,0.291,1.493,17.6
2021-01-03,19:30:42.225314,5.08,0.670,3.400,7.5
2021-01-03,19:30:43.516492,5.12,0.414,2.122,12.3
2021-01-03,19:30:44.838187,5.09,0.596,3.032,8.5
2021-01-03,19:30:46.127891,5.11,0.582,2.973,8.7
2021-01-03,19:30:47.449130,5.09,0.477,2.428,10.6
2021-01-03,19:30:48.740599,5.10,0.500,2.548,10.2
2021-01-03,19:30:50.061620,5.11,0.623,3.181,8.1
2021-01-03,19:30:51.352994,5.08,0.485,2.461,10.4
2021-01-03,19:30:52.673099,5.11,0.484,2.472,10.5
2021-01-03,19:30:53.964035,5.13,0.559,2.866,9.1
2021-01-03,19:30:55.285467,5.07,0.548,2.775,9.2
2021-01-03,19:30:56.575480,5.14,0.306,1.574,16.8
2021-01-03,19:30:57.896760,5.14,0.440,2.260,11.6
2021-01-03,19:30:59.188109,5.09,0.660,3.356,7.7
2021-01-03,19:31:00.509368,5.06,0.559,2.826,9.0
2021-01-03,19:31:01.800462,5.10,0.491,2.505,10.3
2021-01-03,19:31:03.120505,5.10,0.497,2.533,10.2
2021-01-03,19:31:04.411969,5.09,0.513,2.613,9.9
2021-01-03,19:31:05.732971,5.09,0.597,3.040,8.5
2021-01-03,19:31:07.024323,5.10,0.476,2.430,10.7
2021-01-03,19:31:08.344515,5.08,0.459,2.331,11.0
2021-01-03,19:31:09.635541,5.10,0.494,2.516,10.3
2021-01-03,19:31:10.956938,5.08,0.580,2.947,8.7
2021-01-03,19:31:12.248082,5.14,0.330,1.694,15.6
2021-01-03,19:31:13.569340,5.12,0.480,2.454,10.6
2021-01-03,19:31:14.859351,5.09,0.509,2.590,9.9
2021-01-03,19:31:16.180983,5.09,0.426,2.170,11.9
2021-01-03,19:31:17.471987,5.10,0.494,2.522,10.3
2021-01-03,19:31:18.791897,5.10,0.525,2.676,9.7
2021-01-03,19:31:20.083103,5.09,0.502,2.558,10.1
2021-01-03,19:31:21.403238,5.08,0.548,2.785,9.2
2021-01-03,19:31:22.694627,5.08,0.480,2.438,10.5
2021-01-03,19:31:24.014454,5.05,0.465,2.349,10.8
2021-01-03,19:31:25.305649,5.09,0.523,2.664,9.7
2021-01-03,19:31:26.627030,5.08,0.564,2.866,9.0
2021-01-03,19:31:27.916890,5.14,0.304,1.564,16.9
2021-01-03,19:31:29.243283,5.12,0.446,2.285,11.4
2021-01-03,19:31:30.529422,5.09,0.563,2.868,9.0
2021-01-03,19:31:31.850648,5.09,0.435,2.212,11.6
2021-01-03,19:31:33.141939,5.11,0.503,2.567,10.1
2021-01-03,19:31:34.463201,5.11,0.514,2.629,9.9
2021-01-03,19:31:35.753460,5.09,0.531,2.703,9.5
2021-01-03,19:31:37.074779,5.08,0.580,2.949,8.7
2021-01-03,19:31:38.365879,5.09,0.515,2.620,9.8
2021-01-03,19:31:39.689463,5.10,0.459,2.339,11.0
2021-01-03,19:31:40.978447,5.10,0.664,3.386,7.6
2021-01-03,19:31:42.299508,5.07,0.512,2.591,9.9
2021-01-03,19:31:43.589489,5.14,0.330,1.697,15.5
2021-01-03,19:31:44.910826,5.13,0.443,2.275,11.5
2021-01-03,19:31:46.205802,5.09,0.645,3.281,7.8
2021-01-03,19:31:47.523358,5.07,0.604,3.060,8.3
2021-01-03,19:31:48.814934,5.11,0.488,2.491,10.4
2021-01-03,19:31:50.138260,5.09,0.509,2.590,10.0
2021-01-03,19:31:51.429951,5.10,0.470,2.396,10.8
2021-01-03,19:31:52.748315,5.10,0.532,2.709,9.5
2021-01-03,19:31:54.039517,5.10,0.485,2.473,10.5
2021-01-03,19:31:55.360855,5.06,0.459,2.319,11.0
2021-01-03,19:31:56.650867,5.08,0.588,2.984,8.6
2021-01-03,19:31:57.972027,5.13,0.571,2.927,8.9
2021-01-03,19:31:59.263487,5.14,0.294,1.512,17.4
2021-01-03,19:32:00.584619,5.11,0.552,2.822,9.2
2021-01-03,19:32:01.876243,5.06,0.442,2.237,11.4
2021-01-03,19:32:03.196240,5.08,0.531,2.699,9.5
2021-01-03,19:32:04.487230,5.11,0.517,2.642,9.8
2021-01-03,19:32:05.808427,5.09,0.527,2.681,9.6
2021-01-03,19:32:07.099839,5.10,0.593,3.021,8.5
2021-01-03,19:32:08.419553,5.11,0.619,3.159,8.2
2021-01-03,19:32:09.710790,5.09,0.524,2.668,9.7
2021-01-03,19:32:11.032287,5.13,0.349,1.790,14.7
2021-01-03,19:32:12.322548,5.13,0.358,1.839,14.3
2021-01-03,19:32:13.643581,5.09,0.386,1.963,13.1
2021-01-03,19:32:14.934803,5.08,0.548,2.782,9.2
2021-01-03,19:32:16.256208,5.14,0.311,1.598,16.5
2021-01-03,19:32:17.547421,5.15,0.464,2.387,11.1
2021-01-03,19:32:18.867105,5.10,0.550,2.806,9.2
2021-01-03,19:32:20.158525,5.09,0.361,1.838,14.1
2021-01-03,19:32:21.479646,5.10,0.365,1.861,13.9
2021-01-03,19:32:22.771018,5.11,0.556,2.841,9.1
2021-01-03,19:32:24.092378,5.11,0.472,2.409,10.8
2021-01-03,19:32:25.383558,5.10,0.525,2.675,9.7
2021-01-03,19:32:26.704990,5.08,0.489,2.482,10.3
2021-01-03,19:32:27.995011,5.07,0.571,2.895,8.8
2021-01-03,19:32:29.316121,5.11,0.461,2.355,11.0
2021-01-03,19:32:30.607400,5.10,0.647,3.302,7.8
2021-01-03,19:32:31.928633,5.11,0.377,1.925,13.5
2021-01-03,19:32:33.219681,5.13,0.355,1.821,14.4
2021-01-03,19:32:34.541142,5.13,0.350,1.796,14.6
2021-01-03,19:32:35.831210,5.13,0.350,1.796,14.6
2021-01-03,19:32:37.152399,5.13,0.352,1.809,14.5
2021-01-03,19:32:38.443656,5.13,0.351,1.801,14.6
2021-01-03,19:32:39.764937,5.13,0.349,1.790,14.7
2021-01-03,19:32:41.056219,5.10,0.348,1.778,14.6
2021-01-03,19:32:42.377219,5.14,0.323,1.660,15.9
2021-01-03,19:32:43.668542,5.15,0.436,2.247,11.7
2021-01-03,19:32:44.989877,5.07,0.550,2.788,9.2
2021-01-03,19:32:46.281403,5.07,0.359,1.817,14.1
2021-01-03,19:32:47.601313,5.10,0.467,2.379,10.9
2021-01-03,19:32:48.892402,5.11,0.541,2.762,9.4
2021-01-03,19:32:50.213905,5.10,0.511,2.605,9.9
2021-01-03,19:32:51.504961,5.10,0.480,2.444,10.6
2021-01-03,19:32:52.826470,5.10,0.578,2.947,8.8
2021-01-03,19:32:54.117552,5.08,0.597,3.033,8.5
2021-01-03,19:32:55.438808,5.06,0.464,2.348,10.9
2021-01-03,19:32:56.730048,5.09,0.501,2.547,10.1
2021-01-03,19:32:58.050087,5.14,0.314,1.612,16.3
2021-01-03,19:32:59.341279,5.12,0.414,2.118,12.3
2021-01-03,19:33:00.662492,5.11,0.316,1.614,16.1
2021-01-03,19:33:01.953934,5.13,0.584,2.998,8.7
2021-01-03,19:33:03.275199,5.08,0.408,2.069,12.4
2021-01-03,19:33:04.566236,5.10,0.491,2.507,10.3
2021-01-03,19:33:05.886407,5.11,0.526,2.685,9.7
2021-01-03,19:33:07.177685,5.11,0.510,2.605,10.0
2021-01-03,19:33:08.498931,5.09,0.518,2.637,9.8
2021-01-03,19:33:09.790305,5.14,0.304,1.560,16.9
2021-01-03,19:33:11.110403,5.11,0.411,2.100,12.4
2021-01-03,19:33:12.401360,5.10,0.541,2.756,9.4
2021-01-03,19:33:13.722561,5.13,0.583,2.989,8.8
2021-01-03,19:33:15.013851,5.10,0.520,2.650,9.8
2021-01-03,19:33:16.338936,5.11,0.520,2.656,9.8
2021-01-03,19:33:17.629271,5.11,0.522,2.666,9.7
2021-01-03,19:33:18.946614,5.08,0.363,1.843,13.9
2021-01-03,19:33:20.237670,5.14,0.325,1.671,15.7
2021-01-03,19:33:21.561629,5.08,0.432,2.192,11.7
2021-01-03,19:33:22.852713,5.12,0.663,3.395,7.7
2021-01-03,19:33:24.170243,5.11,0.618,3.154,8.2
2021-01-03,19:33:25.461550,5.08,0.532,2.701,9.5
2021-01-03,19:33:26.785242,5.11,0.515,2.627,9.9
2021-01-03,19:33:28.074003,5.11,0.516,2.637,9.8
2021-01-03,19:33:29.395395,5.13,0.347,1.783,14.7
2021-01-03,19:33:30.685263,5.13,0.346,1.778,14.8
2021-01-03,19:33:32.008970,5.14,0.319,1.641,16.1
2021-01-03,19:33:33.298224,5.14,0.319,1.640,16.1
2021-01-03,19:33:34.619049,5.14,0.316,1.625,16.2
2021-01-03,19:33:35.910355,5.14,0.318,1.633,16.1
2021-01-03,19:33:37.242855,5.14,0.318,1.633,16.1
2021-01-03,19:33:38.524273,5.14,0.330,1.696,15.5
2021-01-03,19:33:39.842796,5.14,0.318,1.634,16.1
2021-01-03,19:33:41.133037,5.08,0.464,2.360,10.9
2021-01-03,19:33:42.454130,5.14,0.346,1.776,14.8
2021-01-03,19:33:43.745427,5.10,0.429,2.185,11.8
2021-01-03,19:33:45.066605,5.08,0.383,1.942,13.2
2021-01-03,19:33:46.358021,5.08,0.476,2.419,10.6
2021-01-03,19:33:47.682933,5.10,0.609,3.106,8.3
2021-01-03,19:33:48.969151,5.10,0.506,2.583,10.0
2021-01-03,19:33:50.290495,5.10,0.479,2.442,10.6
2021-01-03,19:33:51.581721,5.09,0.370,1.881,13.7
2021-01-03,19:33:52.902922,5.15,0.303,1.559,17.0
2021-01-03,19:33:54.194078,5.08,0.457,2.319,11.1
2021-01-03,19:33:55.514231,5.11,0.359,1.836,14.2
2021-01-03,19:33:56.805459,5.09,0.553,2.816,9.2
2021-01-03,19:33:58.126608,5.10,0.580,2.954,8.7
2021-01-03,19:33:59.416906,5.11,0.507,2.590,10.0
2021-01-03,19:34:00.737956,5.10,0.524,2.673,9.7
2021-01-03,19:34:02.029367,5.14,0.327,1.678,15.7
2021-01-03,19:34:03.350588,5.11,0.292,1.492,17.4
2021-01-03,19:34:04.641811,5.07,0.588,2.978,8.6
2021-01-03,19:34:05.962995,5.08,0.484,2.460,10.4
2021-01-03,19:34:07.254319,5.09,0.618,3.142,8.2
2021-01-03,19:34:08.575503,5.11,0.449,2.294,11.3
2021-01-03,19:34:09.865915,5.11,0.515,2.627,9.9
2021-01-03,19:34:11.186839,5.09,0.360,1.835,14.1
2021-01-03,19:34:12.478107,5.15,0.292,1.502,17.6
2021-01-03,19:34:13.799371,5.09,0.452,2.300,11.2
2021-01-03,19:34:15.089333,5.11,0.628,3.213,8.1
2021-01-03,19:34:16.410652,5.13,0.605,3.106,8.4
2021-01-03,19:34:17.701931,5.10,0.512,2.609,9.9
2021-01-03,19:34:19.021775,5.11,0.466,2.380,10.9
2021-01-03,19:34:20.311870,5.09,0.508,2.587,10.0
2021-01-03,19:34:21.633464,5.11,0.534,2.727,9.5
2021-01-03,19:34:22.924302,5.14,0.308,1.583,16.7
2021-01-03,19:34:24.245810,5.11,0.300,1.532,17.0
2021-01-03,19:34:25.536950,5.05,0.573,2.893,8.8
2021-01-03,19:34:26.856908,5.13,0.540,2.769,9.4
2021-01-03,19:34:28.148517,5.09,0.511,2.602,9.9
2021-01-03,19:34:29.469595,5.11,0.549,2.803,9.3
2021-01-03,19:34:30.759456,5.10,0.478,2.435,10.6
2021-01-03,19:34:32.080633,5.11,0.585,2.990,8.7
2021-01-03,19:34:33.371976,5.14,0.300,1.543,17.1
2021-01-03,19:34:34.691979,5.11,0.292,1.489,17.5
2021-01-03,19:34:35.983283,5.06,0.595,3.010,8.5
2021-01-03,19:34:37.307006,5.13,0.577,2.963,8.8
2021-01-03,19:34:38.594537,5.08,0.538,2.733,9.4
2021-01-03,19:34:39.915901,5.10,0.473,2.415,10.7
2021-01-03,19:34:41.206998,5.11,0.496,2.534,10.2
2021-01-03,19:34:42.526885,5.11,0.514,2.625,9.9
2021-01-03,19:34:43.818259,5.14,0.329,1.691,15.6
2021-01-03,19:34:45.139572,5.11,0.303,1.547,16.8
2021-01-03,19:34:46.430814,5.06,0.575,2.905,8.7
2021-01-03,19:34:47.750831,5.07,0.472,2.395,10.7
2021-01-03,19:34:49.041972,5.08,0.600,3.046,8.4
2021-01-03,19:34:50.363579,5.14,0.350,1.797,14.7
2021-01-03,19:34:51.654708,5.11,0.487,2.485,10.4
2021-01-03,19:34:52.974524,5.10,0.505,2.578,10.0
2021-01-03,19:34:54.265902,5.11,0.525,2.681,9.7
2021-01-03,19:34:55.587108,5.14,0.326,1.674,15.7
2021-01-03,19:34:56.877015,5.11,0.291,1.488,17.5
2021-01-03,19:34:58.198432,5.09,0.541,2.754,9.4
2021-01-03,19:34:59.489601,5.08,0.500,2.541,10.1
2021-01-03,19:35:00.809470,5.08,0.506,2.569,10.0
2021-01-03,19:35:02.100863,5.10,0.471,2.401,10.8
2021-01-03,19:35:03.422214,5.10,0.504,2.574,10.1
2021-01-03,19:35:04.713481,5.10,0.566,2.884,9.0
2021-01-03,19:35:06.034745,5.14,0.304,1.564,16.9
2021-01-03,19:35:07.324688,5.11,0.398,2.033,12.8
2021-01-03,19:35:08.645981,5.06,0.429,2.172,11.7
2021-01-03,19:35:09.940930,5.10,0.457,2.327,11.1
2021-01-03,19:35:11.258443,5.07,0.559,2.835,9.0
2021-01-03,19:35:12.549780,5.11,0.461,2.351,11.0
2021-01-03,19:35:13.873449,5.10,0.549,2.795,9.2
2021-01-03,19:35:15.163558,5.10,0.483,2.463,10.5
2021-01-03,19:35:16.482238,5.15,0.313,1.611,16.4
2021-01-03,19:35:17.773500,5.10,0.419,2.137,12.1
2021-01-03,19:35:19.094921,5.07,0.401,2.032,12.6
2021-01-03,19:35:20.386064,5.13,0.319,1.638,16.0
2021-01-03,19:35:21.707295,5.12,0.575,2.941,8.8
2021-01-03,19:35:22.997417,5.08,0.554,2.816,9.1
2021-01-03,19:35:24.318675,5.11,0.491,2.506,10.3
2021-01-03,19:35:25.612371,5.11,0.524,2.676,9.7
2021-01-03,19:35:26.930990,5.08,0.483,2.452,10.5
2021-01-03,19:35:28.222367,5.14,0.326,1.676,15.7
2021-01-03,19:35:29.542349,5.13,0.437,2.239,11.7
2021-01-03,19:35:30.833679,5.09,0.577,2.936,8.8
2021-01-03,19:35:32.154904,5.11,0.494,2.524,10.3
2021-01-03,19:35:33.446485,5.10,0.492,2.505,10.3
2021-01-03,19:35:34.767402,5.10,0.469,2.394,10.8
2021-01-03,19:35:36.057401,5.09,0.532,2.709,9.5
2021-01-03,19:35:37.381418,5.08,0.502,2.551,10.1
2021-01-03,19:35:38.669933,5.14,0.295,1.516,17.4
2021-01-03,19:35:39.990202,5.13,0.436,2.240,11.7
2021-01-03,19:35:41.281248,5.09,0.579,2.947,8.7
2021-01-03,19:35:42.601351,5.09,0.376,1.913,13.5
2021-01-03,19:35:43.892475,5.10,0.526,2.683,9.6
2021-01-03,19:35:45.213732,5.09,0.510,2.596,9.9
2021-01-03,19:35:46.505184,5.11,0.485,2.476,10.5
2021-01-03,19:35:47.824922,5.09,0.460,2.343,11.0
2021-01-03,19:35:49.122536,5.15,0.294,1.513,17.5
2021-01-03,19:35:50.437748,5.15,0.455,2.342,11.3
2021-01-03,19:35:51.727476,5.07,0.702,3.557,7.2
2021-01-03,19:35:53.048755,5.08,0.368,1.870,13.8
2021-01-03,19:35:54.340014,5.09,0.569,2.895,8.9
2021-01-03,19:35:55.659979,5.10,0.472,2.407,10.8
2021-01-03,19:35:56.953878,5.09,0.357,1.818,14.2
2021-01-03,19:35:58.272534,5.14,0.323,1.661,15.9
2021-01-03,19:35:59.562916,5.14,0.318,1.635,16.1
2021-01-03,19:36:00.883984,5.14,0.339,1.743,15.1
2021-01-03,19:36:02.175087,5.14,0.318,1.632,16.1
2021-01-03,19:36:03.495292,5.14,0.318,1.635,16.1
2021-01-03,19:36:04.786385,5.14,0.317,1.627,16.2
2021-01-03,19:36:06.107671,5.14,0.317,1.630,16.2
2021-01-03,19:36:07.397633,5.14,0.316,1.623,16.2
2021-01-03,19:36:08.752885,5.11,0.316,1.613,16.1
2021-01-03,19:36:10.010162,5.11,0.526,2.689,9.7
2021-01-03,19:36:11.331578,5.14,0.321,1.646,16.0
2021-01-03,19:36:12.621417,5.15,0.288,1.480,17.8
2021-01-03,19:36:13.942639,5.09,0.568,2.889,8.9
2021-01-03,19:36:15.234057,5.13,0.433,2.223,11.8
2021-01-03,19:36:16.555202,5.13,0.530,2.717,9.6
2021-01-03,19:36:17.846453,5.09,0.495,2.518,10.2
2021-01-03,19:36:19.167852,5.10,0.495,2.525,10.2
2021-01-03,19:36:20.458983,5.09,0.504,2.567,10.0
2021-01-03,19:36:21.779014,5.10,0.371,1.891,13.7
2021-01-03,19:36:23.070259,5.15,0.289,1.488,17.8
2021-01-03,19:36:24.391566,5.08,0.455,2.311,11.1
2021-01-03,19:36:25.682778,5.12,0.678,3.465,7.5
2021-01-03,19:36:27.003994,5.13,0.355,1.822,14.4
2021-01-03,19:36:28.294026,5.12,0.537,2.751,9.5
2021-01-03,19:36:29.615444,5.11,0.610,3.116,8.3
2021-01-03,19:36:30.906783,5.10,0.500,2.549,10.1
2021-01-03,19:36:32.227724,5.09,0.504,2.564,10.0
2021-01-03,19:36:33.519060,5.11,0.350,1.788,14.5
2021-01-03,19:36:34.840214,5.14,0.323,1.659,15.9
2021-01-03,19:36:36.131521,5.10,0.319,1.629,15.9
2021-01-03,19:36:37.451566,5.09,0.562,2.861,9.0
2021-01-03,19:36:38.742850,5.13,0.604,3.102,8.4
2021-01-03,19:36:40.064114,5.10,0.473,2.414,10.7
2021-01-03,19:36:41.355486,5.11,0.559,2.855,9.1
2021-01-03,19:36:42.675451,5.10,0.491,2.503,10.3
2021-01-03,19:36:43.966634,5.09,0.518,2.641,9.8
2021-01-03,19:36:45.287943,5.14,0.318,1.636,16.1
2021-01-03,19:36:46.579333,5.12,0.291,1.487,17.5
2021-01-03,19:36:47.899138,5.09,0.585,2.974,8.6
2021-01-03,19:36:49.190425,5.11,0.469,2.396,10.8
2021-01-03,19:36:50.524524,5.09,0.512,2.606,9.9
2021-01-03,19:36:51.805876,5.10,0.463,2.362,11.0
2021-01-03,19:36:53.122953,5.11,0.546,2.788,9.3
2021-01-03,19:36:54.414393,5.10,0.501,2.555,10.1
2021-01-03,19:36:55.734416,5.12,0.376,1.923,13.6
2021-01-03,19:36:57.025390,5.14,0.396,2.039,12.9
2021-01-03,19:36:58.349627,5.11,0.596,3.047,8.5
2021-01-03,19:36:59.636764,5.07,0.408,2.070,12.4
2021-01-03,19:37:00.958163,5.15,0.316,1.628,16.2
2021-01-03,19:37:02.249450,5.10,0.520,2.652,9.8
2021-01-03,19:37:03.570704,5.09,0.412,2.100,12.3
2021-01-03,19:37:04.860562,5.07,0.524,2.658,9.6
2021-01-03,19:37:06.181774,5.05,0.463,2.334,10.9
2021-01-03,19:37:07.476751,5.09,0.638,3.250,7.9
2021-01-03,19:37:08.794373,5.06,0.679,3.435,7.4
2021-01-03,19:37:10.085595,5.12,0.323,1.651,15.8
2021-01-03,19:37:11.405592,5.13,0.290,1.490,17.6
2021-01-03,19:37:12.699449,5.09,0.514,2.613,9.9
2021-01-03,19:37:14.018082,5.12,0.554,2.833,9.2
2021-01-03,19:37:15.310713,5.11,0.542,2.770,9.4
2021-01-03,19:37:16.633066,5.08,0.515,2.613,9.8
2021-01-03,19:37:17.923057,5.13,0.577,2.960,8.9
2021-01-03,19:37:19.256975,5.14,0.314,1.616,16.3
2021-01-03,19:37:20.531925,5.15,0.450,2.315,11.4
2021-01-03,19:37:21.855661,5.09,0.524,2.665,9.7
2021-01-03,19:37:23.146955,5.08,0.554,2.815,9.1
2021-01-03,19:37:24.464790,5.07,0.508,2.579,9.9
2021-01-03,19:37:25.755665,5.10,0.485,2.477,10.5
2021-01-03,19:37:27.078194,5.06,0.595,3.009,8.5
2021-01-03,19:37:28.370721,5.09,0.721,3.672,7.0
2021-01-03,19:37:29.688209,5.08,0.596,3.029,8.5
2021-01-03,19:37:30.979360,5.10,0.362,1.845,14.0
2021-01-03,19:37:32.299421,5.13,0.293,1.501,17.5
2021-01-03,19:37:33.593268,5.09,0.537,2.733,9.4
2021-01-03,19:37:34.910767,5.13,0.521,2.671,9.8
2021-01-03,19:37:36.201922,5.08,0.486,2.469,10.4
2021-01-03,19:37:37.526163,5.09,0.471,2.400,10.8
2021-01-03,19:37:38.814711,5.07,0.576,2.919,8.7
2021-01-03,19:37:40.134852,5.05,0.619,3.127,8.1
2021-01-03,19:37:41.426010,5.09,0.527,2.683,9.6
2021-01-03,19:37:42.747088,5.13,0.703,3.604,7.2
2021-01-03,19:37:44.038391,5.14,0.301,1.546,17.1
2021-01-03,19:37:45.359576,5.11,0.589,3.005,8.6
2021-01-03,19:37:46.651050,5.07,0.442,2.238,11.4
2021-01-03,19:37:47.975954,5.10,0.579,2.955,8.8
2021-01-03,19:37:49.261906,5.14,0.459,2.354,11.2
2021-01-03,19:37:50.583397,5.14,0.321,1.648,16.0
2021-01-03,19:37:51.874940,5.14,0.322,1.656,15.9
2021-01-03,19:37:53.195793,5.14,0.321,1.649,16.0
2021-01-03,19:37:54.487092,5.14,0.319,1.641,16.1
2021-01-03,19:37:55.808750,5.14,0.317,1.630,16.2
2021-01-03,19:37:57.099537,5.14,0.317,1.631,16.2
2021-01-03,19:37:58.420928,5.08,0.316,1.606,16.0
2021-01-03,19:37:59.710861,5.10,0.453,2.310,11.2
2021-01-03,19:38:01.032143,5.08,0.513,2.606,9.9
2021-01-03,19:38:02.323314,5.05,0.534,2.694,9.4
2021-01-03,19:38:03.643276,5.11,0.613,3.129,8.3
2021-01-03,19:38:04.934732,5.14,0.441,2.265,11.6
2021-01-03,19:38:06.255938,5.15,0.388,1.996,13.2
2021-01-03,19:38:07.547215,5.10,0.547,2.786,9.3
2021-01-03,19:38:08.867203,5.10,0.413,2.105,12.3
2021-01-03,19:38:10.158455,5.09,0.473,2.409,10.7
2021-01-03,19:38:11.482196,5.10,0.627,3.200,8.1
2021-01-03,19:38:12.769812,5.09,0.524,2.666,9.7
2021-01-03,19:38:14.091398,5.10,0.481,2.453,10.5
2021-01-03,19:38:15.382285,5.09,0.596,3.032,8.5
2021-01-03,19:38:16.706089,5.09,0.330,1.680,15.4
2021-01-03,19:38:17.994864,5.14,0.293,1.506,17.5
2021-01-03,19:38:19.316034,5.09,0.479,2.435,10.6
2021-01-03,19:38:20.606172,5.13,0.498,2.554,10.3
2021-01-03,19:38:21.927350,5.08,0.474,2.407,10.7
2021-01-03,19:38:23.218597,5.08,0.462,2.348,10.9
2021-01-03,19:38:24.538643,5.10,0.505,2.571,10.0
2021-01-03,19:38:25.829792,5.07,0.538,2.730,9.4
2021-01-03,19:38:27.151090,5.08,0.579,2.943,8.7
2021-01-03,19:38:28.442439,5.09,0.572,2.910,8.9
2021-01-03,19:38:29.763589,5.14,0.297,1.530,17.2
2021-01-03,19:38:31.054948,5.11,0.291,1.487,17.5
2021-01-03,19:38:32.374944,5.09,0.477,2.427,10.6
2021-01-03,19:38:33.666206,5.13,0.495,2.538,10.3
2021-01-03,19:38:34.987433,5.08,0.483,2.455,10.5
2021-01-03,19:38:36.277335,5.11,0.478,2.440,10.6
2021-01-03,19:38:37.598546,5.11,0.491,2.509,10.3
2021-01-03,19:38:38.889925,5.08,0.641,3.253,7.9
2021-01-03,19:38:40.209975,5.07,0.485,2.455,10.4
2021-01-03,19:38:41.501043,5.14,0.592,3.043,8.6
2021-01-03,19:38:42.822297,5.15,0.308,1.587,16.7
2021-01-03,19:38:44.113719,5.11,0.568,2.903,9.0
2021-01-03,19:38:45.433696,5.13,0.427,2.190,11.9
2021-01-03,19:38:46.724967,5.11,0.544,2.781,9.3
2021-01-03,19:38:48.046056,5.10,0.460,2.346,11.0
2021-01-03,19:38:49.336278,5.10,0.500,2.551,10.1
2021-01-03,19:38:50.657822,5.04,0.715,3.601,7.0
2021-01-03,19:38:51.948730,5.08,0.486,2.468,10.4
2021-01-03,19:38:53.268925,5.07,0.561,2.842,9.0
2021-01-03,19:38:54.560018,5.14,0.321,1.647,16.0
2021-01-03,19:38:55.881331,5.11,0.364,1.861,14.0
2021-01-03,19:38:57.172607,5.08,0.553,2.811,9.1
2021-01-03,19:38:58.492550,5.10,0.558,2.850,9.1
2021-01-03,19:38:59.783837,5.09,0.569,2.896,8.9
2021-01-03,19:39:01.105132,5.10,0.570,2.905,8.9
2021-01-03,19:39:02.396382,5.07,0.524,2.653,9.6
2021-01-03,19:39:03.717584,5.08,0.531,2.695,9.5
2021-01-03,19:39:05.008701,5.10,0.633,3.229,8.0
2021-01-03,19:39:06.330156,5.13,0.364,1.867,14.1
2021-01-03,19:39:07.620216,5.13,0.294,1.508,17.4
2021-01-03,19:39:08.941466,5.08,0.696,3.535,7.2
2021-01-03,19:39:10.236346,5.12,0.357,1.829,14.3
2021-01-03,19:39:11.553921,5.11,0.581,2.969,8.7
2021-01-03,19:39:12.845618,5.11,0.581,2.965,8.7
2021-01-03,19:39:14.168971,5.10,0.454,2.316,11.2
2021-01-03,19:39:15.461636,5.10,0.614,3.128,8.3
2021-01-03,19:39:16.779012,5.08,0.527,2.674,9.6
2021-01-03,19:39:18.070365,5.06,0.491,2.482,10.2
2021-01-03,19:39:19.394188,5.14,0.322,1.656,15.9
2021-01-03,19:39:20.685364,5.15,0.450,2.318,11.4
2021-01-03,19:39:22.002840,5.09,0.535,2.723,9.5
2021-01-03,19:39:23.294015,5.13,0.361,1.851,14.1
2021-01-03,19:39:24.617715,5.10,0.499,2.541,10.2
2021-01-03,19:39:25.906592,5.09,0.464,2.366,10.9
2021-01-03,19:39:27.226579,5.11,0.465,2.374,10.9
2021-01-03,19:39:28.517818,5.08,0.542,2.756,9.3
2021-01-03,19:39:29.839255,5.09,0.620,3.158,8.2
2021-01-03,19:39:31.130381,5.07,0.700,3.552,7.2
2021-01-03,19:39:32.450276,5.14,0.330,1.698,15.5
2021-01-03,19:39:33.741535,5.11,0.293,1.494,17.4
2021-01-03,19:39:35.062828,5.09,0.536,2.727,9.5
2021-01-03,19:39:36.354024,5.13,0.544,2.792,9.4
2021-01-03,19:39:37.674140,5.09,0.450,2.290,11.2
2021-01-03,19:39:38.965216,5.11,0.623,3.181,8.1
2021-01-03,19:39:40.285252,5.08,0.507,2.573,10.0
2021-01-03,19:39:41.579234,5.09,0.642,3.268,7.9
2021-01-03,19:39:42.897842,5.08,0.523,2.655,9.7
2021-01-03,19:39:44.188067,5.09,0.540,2.750,9.4
2021-01-03,19:39:45.509152,5.14,0.303,1.556,16.9
2021-01-03,19:39:46.800433,5.15,0.462,2.380,11.1
2021-01-03,19:39:48.120458,5.10,0.574,2.923,8.8
2021-01-03,19:39:49.411694,5.10,0.361,1.843,14.1
2021-01-03,19:39:50.732885,5.10,0.522,2.665,9.7
2021-01-03,19:39:52.022954,5.13,0.346,1.778,14.8
2021-01-03,19:39:53.344219,5.13,0.368,1.887,13.9
2021-01-03,19:39:54.635452,5.11,0.443,2.263,11.5
2021-01-03,19:39:55.956769,5.08,0.721,3.663,7.0
2021-01-03,19:39:57.248011,5.10,0.606,3.091,8.4
2021-01-03,19:39:58.568021,5.13,0.613,3.143,8.3
2021-01-03,19:39:59.859343,5.14,0.323,1.661,15.8
2021-01-03,19:40:01.180794,5.13,0.443,2.274,11.5
2021-01-03,19:40:02.471762,5.09,0.621,3.159,8.1
2021-01-03,19:40:03.804344,5.08,0.492,2.499,10.3
2021-01-03,19:40:05.087263,5.10,0.490,2.503,10.4
2021-01-03,19:40:06.404206,5.10,0.672,3.431,7.5
2021-01-03,19:40:07.695681,5.13,0.318,1.627,16.1
2021-01-03,19:40:09.015526,5.13,0.292,1.495,17.5
2021-01-03,19:40:10.306815,5.09,0.543,2.762,9.3
2021-01-03,19:40:11.628156,5.11,0.555,2.833,9.2
2021-01-03,19:40:12.919501,5.11,0.451,2.301,11.3
2021-01-03,19:40:14.240570,5.10,0.473,2.414,10.7
2021-01-03,19:40:15.531706,5.08,0.601,3.054,8.4
2021-01-03,19:40:16.851784,5.04,0.564,2.842,8.9
2021-01-03,19:40:18.142979,5.09,0.546,2.779,9.3
2021-01-03,19:40:19.464542,5.10,0.671,3.420,7.6
2021-01-03,19:40:20.755541,5.14,0.318,1.633,16.2
2021-01-03,19:40:22.076918,5.12,0.488,2.497,10.4
2021-01-03,19:40:23.368234,5.09,0.502,2.554,10.1
2021-01-03,19:40:24.688382,5.08,0.549,2.787,9.2
2021-01-03,19:40:25.979531,5.07,0.481,2.438,10.5
2021-01-03,19:40:27.300715,5.11,0.525,2.679,9.7
2021-01-03,19:40:28.591894,5.11,0.498,2.546,10.2
2021-01-03,19:40:29.913251,5.10,0.770,3.926,6.6
2021-01-03,19:40:31.204791,5.07,0.497,2.519,10.2
2021-01-03,19:40:32.525777,5.10,0.319,1.625,16.0
2021-01-03,19:40:33.817026,5.15,0.294,1.515,17.4
2021-01-03,19:40:35.138453,5.09,0.504,2.564,10.0
2021-01-03,19:40:36.428271,5.13,0.479,2.457,10.7
2021-01-03,19:40:37.749620,5.09,0.468,2.381,10.8
2021-01-03,19:40:39.040800,5.07,0.468,2.373,10.8
2021-01-03,19:40:40.362117,5.06,0.510,2.582,9.9
2021-01-03,19:40:41.653294,5.12,0.486,2.486,10.5
2021-01-03,19:40:42.974498,5.14,0.320,1.643,16.0
2021-01-03,19:40:44.264359,5.07,0.580,2.942,8.7
2021-01-03,19:40:45.585876,5.14,0.333,1.710,15.4
2021-01-03,19:40:46.876983,5.14,0.322,1.652,15.9
2021-01-03,19:40:48.198395,5.14,0.321,1.647,16.0
2021-01-03,19:40:49.489600,5.14,0.320,1.647,16.0
2021-01-03,19:40:50.813387,5.14,0.319,1.638,16.1
2021-01-03,19:40:52.100870,5.11,0.317,1.620,16.1
2021-01-03,19:40:53.422458,5.14,0.321,1.648,16.0
2021-01-03,19:40:54.713468,5.14,0.321,1.648,16.0
2021-01-03,19:40:56.034629,5.14,0.319,1.641,16.1
2021-01-03,19:40:57.329522,5.14,0.321,1.648,16.0
2021-01-03,19:40:58.646997,5.14,0.319,1.639,16.1
2021-01-03,19:40:59.938451,5.12,0.522,2.672,9.8
2021-01-03,19:41:01.262298,5.08,0.501,2.547,10.1
2021-01-03,19:41:02.549856,5.14,0.492,2.530,10.4
2021-01-03,19:41:03.870829,5.15,0.363,1.869,14.1
2021-01-03,19:41:05.162146,5.10,0.552,2.814,9.2
2021-01-03,19:41:06.485991,5.10,0.414,2.112,12.2
2021-01-03,19:41:07.776170,5.07,0.445,2.256,11.3
2021-01-03,19:41:09.094754,5.11,0.503,2.567,10.1
2021-01-03,19:41:10.386024,5.11,0.595,3.040,8.5
2021-01-03,19:41:11.707417,5.09,0.657,3.342,7.7
2021-01-03,19:41:13.001036,5.09,0.488,2.480,10.4
2021-01-03,19:41:14.318579,5.13,0.329,1.684,15.6
2021-01-03,19:41:15.608705,5.15,0.290,1.495,17.7
2021-01-03,19:41:16.930922,5.09,0.553,2.818,9.2
2021-01-03,19:41:18.221123,5.13,0.439,2.254,11.6
2021-01-03,19:41:19.541038,5.08,0.469,2.382,10.8
2021-01-03,19:41:20.832415,5.10,0.466,2.375,10.9
2021-01-03,19:41:22.153560,5.10,0.511,2.606,9.9
2021-01-03,19:41:23.443580,5.04,0.694,3.497,7.2
2021-01-03,19:41:24.764739,5.10,0.561,2.860,9.0
2021-01-03,19:41:26.056205,5.11,0.329,1.682,15.5
2021-01-03,19:41:27.377414,5.10,0.444,2.264,11.5
2021-01-03,19:41:28.667334,5.13,0.323,1.656,15.9
2021-01-03,19:41:29.988869,5.08,0.679,3.450,7.4
2021-01-03,19:41:31.280078,5.12,0.347,1.776,14.7
2021-01-03,19:41:32.601169,5.07,0.538,2.727,9.4
2021-01-03,19:41:33.891178,5.10,0.484,2.471,10.5
2021-01-03,19:41:35.212554,5.07,0.560,2.839,9.0
2021-01-03,19:41:36.503675,5.10,0.495,2.528,10.3
2021-01-03,19:41:37.824810,5.14,0.343,1.760,15.0
2021-01-03,19:41:39.114973,5.15,0.293,1.507,17.5
2021-01-03,19:41:40.436016,5.08,0.646,3.282,7.8
2021-01-03,19:41:41.727393,5.12,0.368,1.883,13.9
2021-01-03,19:41:43.047390,5.09,0.506,2.575,10.0
2021-01-03,19:41:44.338703,5.10,0.480,2.446,10.6
2021-01-03,19:41:45.660053,5.07,0.617,3.126,8.2
2021-01-03,19:41:46.949937,5.09,0.341,1.737,14.9
2021-01-03,19:41:48.271094,5.12,0.301,1.542,16.9
2021-01-03,19:41:49.562540,5.13,0.329,1.685,15.5
2021-01-03,19:41:50.882538,5.08,0.623,3.166,8.1
2021-01-03,19:41:52.173828,5.13,0.293,1.507,17.4
2021-01-03,19:41:53.495039,5.11,0.291,1.488,17.5
2021-01-03,19:41:54.785201,5.06,0.583,2.949,8.6
2021-01-03,19:41:56.106380,5.12,0.535,2.738,9.5
2021-01-03,19:41:57.397603,5.08,0.520,2.640,9.7
2021-01-03,19:41:58.717596,5.11,0.521,2.660,9.7
2021-01-03,19:42:00.008692,5.10,0.573,2.917,8.8
2021-01-03,19:42:01.330038,5.11,0.681,3.476,7.5
2021-01-03,19:42:02.620114,5.14,0.322,1.654,15.9
2021-01-03,19:42:03.941424,5.11,0.321,1.638,15.9
2021-01-03,19:42:05.233003,5.06,0.558,2.824,9.0
2021-01-03,19:42:06.553801,5.12,0.581,2.975,8.8
2021-01-03,19:42:07.843790,5.10,0.475,2.418,10.7
2021-01-03,19:42:09.165357,5.10,0.557,2.838,9.1
2021-01-03,19:42:10.456274,5.07,0.518,2.627,9.7
2021-01-03,19:42:11.777573,5.11,0.668,3.409,7.6
2021-01-03,19:42:13.067685,5.14,0.325,1.669,15.8
2021-01-03,19:42:14.388782,5.11,0.311,1.589,16.4
2021-01-03,19:42:15.680174,5.06,0.561,2.836,9.0
2021-01-03,19:42:17.001393,5.12,0.389,1.993,13.1
2021-01-03,19:42:18.292824,5.08,0.528,2.686,9.6
2021-01-03,19:42:19.613927,5.06,0.602,3.045,8.4
2021-01-03,19:42:20.905133,5.06,0.521,2.636,9.7
2021-01-03,19:42:22.225376,5.09,0.543,2.764,9.3
2021-01-03,19:42:23.516488,5.14,0.328,1.685,15.6
2021-01-03,19:42:24.837790,5.11,0.291,1.489,17.5
2021-01-03,19:42:26.128874,5.08,0.582,2.956,8.7
2021-01-03,19:42:27.450351,5.11,0.377,1.926,13.5
2021-01-03,19:42:28.741573,5.08,0.592,3.006,8.5
2021-01-03,19:42:30.062737,5.09,0.550,2.800,9.2
2021-01-03,19:42:31.354086,5.10,0.495,2.522,10.2
2021-01-03,19:42:32.674055,5.10,0.489,2.493,10.4
2021-01-03,19:42:33.965222,5.11,0.332,1.697,15.3
2021-01-03,19:42:35.286399,5.14,0.293,1.504,17.5
2021-01-03,19:42:36.577975,5.09,0.488,2.480,10.4
2021-01-03,19:42:37.899066,5.12,0.377,1.931,13.5
2021-01-03,19:42:39.189122,5.09,0.566,2.876,8.9
2021-01-03,19:42:40.510182,5.10,0.616,3.143,8.2
2021-01-03,19:42:41.801821,5.09,0.659,3.355,7.7
2021-01-03,19:42:43.122815,5.09,0.527,2.687,9.6
2021-01-03,19:42:44.414026,5.14,0.318,1.634,16.1
2021-01-03,19:42:45.735452,5.11,0.292,1.490,17.5
2021-01-03,19:42:47.026568,5.07,0.588,2.982,8.6
2021-01-03,19:42:48.346744,5.10,0.455,2.322,11.2
2021-01-03,19:42:49.640440,5.09,0.512,2.606,9.9
2021-01-03,19:42:50.958046,5.06,0.630,3.189,8.0
2021-01-03,19:42:52.249052,5.06,0.508,2.570,9.9
2021-01-03,19:42:53.569125,5.09,0.658,3.349,7.7
2021-01-03,19:42:54.862984,5.14,0.303,1.559,16.9
2021-01-03,19:42:56.182084,5.11,0.294,1.501,17.3
2021-01-03,19:42:57.472991,5.06,0.588,2.974,8.5
2021-01-03,19:42:58.796669,5.11,0.470,2.403,10.8
2021-01-03,19:43:00.087974,5.09,0.601,3.060,8.4
2021-01-03,19:43:01.406669,5.10,0.489,2.490,10.4
2021-01-03,19:43:02.698030,5.08,0.604,3.067,8.4
2021-01-03,19:43:04.020528,5.10,0.576,2.938,8.8
2021-01-03,19:43:05.309245,5.14,0.330,1.695,15.5
2021-01-03,19:43:06.630574,5.11,0.291,1.488,17.5
2021-01-03,19:43:07.921684,5.08,0.586,2.973,8.6
2021-01-03,19:43:09.243054,5.11,0.395,2.017,12.9
2021-01-03,19:43:10.534230,5.08,0.556,2.825,9.1
2021-01-03,19:43:11.854409,5.09,0.470,2.396,10.8
2021-01-03,19:43:13.145480,5.10,0.502,2.560,10.1
2021-01-03,19:43:14.467092,5.09,0.477,2.429,10.6
2021-01-03,19:43:15.758067,5.08,0.331,1.681,15.3
2021-01-03,19:43:17.088201,5.14,0.292,1.501,17.5
2021-01-03,19:43:18.370446,5.09,0.483,2.455,10.5
2021-01-03,19:43:19.691825,5.12,0.349,1.786,14.6
2021-01-03,19:43:20.983226,5.09,0.562,2.858,9.0
2021-01-03,19:43:22.304250,5.08,0.489,2.483,10.3
2021-01-03,19:43:23.595619,5.10,0.508,2.588,10.0
2021-01-03,19:43:24.916866,5.09,0.468,2.379,10.8
2021-01-03,19:43:26.208083,5.07,0.317,1.607,16.0
2021-01-03,19:43:27.528102,5.15,0.291,1.497,17.6
2021-01-03,19:43:28.819399,5.08,0.455,2.310,11.1
2021-01-03,19:43:30.141218,5.12,0.366,1.873,13.9
2021-01-03,19:43:31.431820,5.09,0.585,2.978,8.7
2021-01-03,19:43:32.753211,5.08,0.487,2.475,10.4
2021-01-03,19:43:34.043284,5.10,0.507,2.585,10.0
2021-01-03,19:43:35.364386,5.09,0.480,2.443,10.6
2021-01-03,19:43:36.655798,5.07,0.330,1.674,15.3
2021-01-03,19:43:37.976947,5.14,0.293,1.506,17.5
2021-01-03,19:43:39.267058,5.09,0.490,2.490,10.3
2021-01-03,19:43:40.588393,5.12,0.358,1.832,14.3
2021-01-03,19:43:41.879429,5.12,0.525,2.689,9.7
2021-01-03,19:43:43.200766,5.10,0.571,2.913,8.9
2021-01-03,19:43:44.491988,5.10,0.564,2.874,9.0
2021-01-03,19:43:45.813298,5.07,0.479,2.426,10.5
2021-01-03,19:43:47.104551,5.11,0.709,3.620,7.2
2021-01-03,19:43:48.425754,5.15,0.302,1.552,17.0
2021-01-03,19:43:49.717172,5.11,0.350,1.789,14.6
2021-01-03,19:43:51.038401,5.06,0.438,2.214,11.5
2021-01-03,19:43:52.328190,5.13,0.429,2.200,11.9
2021-01-03,19:43:53.649490,5.09,0.583,2.966,8.7
2021-01-03,19:43:54.940791,5.08,0.570,2.898,8.9
2021-01-03,19:43:56.262073,5.10,0.602,3.067,8.4
2021-01-03,19:43:57.553560,5.10,0.662,3.375,7.7
2021-01-03,19:43:58.874616,5.15,0.328,1.687,15.6
2021-01-03,19:44:00.165792,5.11,0.291,1.488,17.5
2021-01-03,19:44:01.487084,5.08,0.459,2.329,11.0
2021-01-03,19:44:02.778563,5.12,0.474,2.427,10.7
2021-01-03,19:44:04.099694,5.11,0.538,2.745,9.4
2021-01-03,19:44:05.389723,5.07,0.521,2.643,9.7
2021-01-03,19:44:06.710981,5.07,0.472,2.393,10.7
2021-01-03,19:44:08.002234,5.11,0.714,3.645,7.1
2021-01-03,19:44:09.323486,5.14,0.302,1.552,17.0
2021-01-03,19:44:10.614679,5.11,0.293,1.495,17.4
2021-01-03,19:44:11.935779,5.09,0.560,2.848,9.0
2021-01-03,19:44:13.226017,5.13,0.363,1.861,14.1
2021-01-03,19:44:14.547291,5.09,0.468,2.380,10.8
2021-01-03,19:44:15.838482,5.09,0.598,3.044,8.5
2021-01-03,19:44:17.159691,5.10,0.495,2.528,10.2
2021-01-03,19:44:18.451215,5.11,0.615,3.140,8.3
2021-01-03,19:44:19.777312,5.14,0.466,2.396,11.0
2021-01-03,19:44:21.066118,5.15,0.304,1.563,16.9
2021-01-03,19:44:22.383624,5.10,0.550,2.805,9.2
2021-01-03,19:44:23.674722,5.11,0.358,1.830,14.2
2021-01-03,19:44:24.998833,5.09,0.474,2.416,10.7
2021-01-03,19:44:26.287472,5.10,0.597,3.043,8.5
2021-01-03,19:44:27.609755,5.09,0.569,2.897,8.9
2021-01-03,19:44:28.898670,5.09,0.533,2.713,9.5
2021-01-03,19:44:30.220215,5.13,0.545,2.793,9.4
2021-01-03,19:44:31.511076,5.15,0.322,1.656,15.9
2021-01-03,19:44:32.831103,5.11,0.555,2.839,9.2
2021-01-03,19:44:34.122308,5.06,0.440,2.228,11.5
2021-01-03,19:44:35.446282,5.09,0.491,2.500,10.3
2021-01-03,19:44:36.736117,5.07,0.496,2.516,10.2
2021-01-03,19:44:38.055009,5.09,0.551,2.806,9.2
2021-01-03,19:44:39.346231,5.11,0.538,2.745,9.4
2021-01-03,19:44:40.667502,5.14,0.422,2.167,12.1
2021-01-03,19:44:41.958796,5.15,0.304,1.566,16.9
2021-01-03,19:44:43.278795,5.09,0.542,2.758,9.3
2021-01-03,19:44:44.570079,5.11,0.360,1.841,14.2
2021-01-03,19:44:45.890034,5.10,0.477,2.433,10.6
2021-01-03,19:44:47.181252,5.11,0.600,3.060,8.5
2021-01-03,19:44:48.502358,5.08,0.474,2.407,10.7
2021-01-03,19:44:49.793758,5.09,0.583,2.970,8.7
2021-01-03,19:44:51.115213,5.12,0.540,2.765,9.4
2021-01-03,19:44:52.405209,5.15,0.314,1.616,16.3
2021-01-03,19:44:53.726235,5.11,0.527,2.692,9.7
2021-01-03,19:44:55.017585,5.08,0.454,2.305,11.1
2021-01-03,19:44:56.341387,5.10,0.361,1.841,14.1
2021-01-03,19:44:57.631291,5.11,0.553,2.824,9.2
2021-01-03,19:44:58.951391,5.07,0.491,2.489,10.3
2021-01-03,19:45:00.242523,5.10,0.653,3.328,7.8
2021-01-03,19:45:01.565136,5.07,0.486,2.462,10.4
2021-01-03,19:45:02.855107,5.13,0.330,1.690,15.5
2021-01-03,19:45:04.176229,5.12,0.324,1.656,15.8
2021-01-03,19:45:05.466376,5.12,0.449,2.301,11.3
2021-01-03,19:45:06.787695,5.12,0.675,3.454,7.5
2021-01-03,19:45:08.078799,5.15,0.559,2.878,9.1
2021-01-03,19:45:09.400104,5.15,0.290,1.494,17.7
2021-01-03,19:45:10.691232,5.11,0.593,3.031,8.6
2021-01-03,19:45:12.012649,5.13,0.439,2.254,11.6
2021-01-03,19:45:13.302748,5.15,0.327,1.681,15.7
2021-01-03,19:45:14.625139,5.15,0.456,2.350,11.2
2021-01-03,19:45:15.916276,5.08,0.635,3.224,7.9
2021-01-03,19:45:17.236382,5.14,0.548,2.814,9.3
2021-01-03,19:45:18.527681,5.15,0.320,1.645,16.1
2021-01-03,19:45:19.848833,5.11,0.588,3.007,8.6
2021-01-03,19:45:21.139059,5.07,0.424,2.146,11.9
2021-01-03,19:45:22.460334,5.14,0.317,1.627,16.2
2021-01-03,19:45:23.751430,5.12,0.290,1.483,17.6
2021-01-03,19:45:25.071518,5.09,0.579,2.944,8.7
2021-01-03,19:45:26.369377,5.13,0.407,2.088,12.6
2021-01-03,19:45:27.684113,5.15,0.322,1.659,15.9
2021-01-03,19:45:28.975132,5.10,0.433,2.211,11.7
2021-01-03,19:45:30.296670,5.07,0.410,2.077,12.3
2021-01-03,19:45:31.587861,5.10,0.297,1.516,17.1
2021-01-03,19:45:32.907692,5.15,0.296,1.524,17.3
2021-01-03,19:45:34.199293,5.08,0.437,2.219,11.6
2021-01-03,19:45:35.520566,5.11,0.357,1.823,14.3
2021-01-03,19:45:36.814104,5.12,0.328,1.677,15.6
2021-01-03,19:45:38.133085,5.13,0.289,1.482,17.7
2021-01-03,19:45:39.423267,5.09,0.508,2.585,10.0
2021-01-03,19:45:40.744060,5.13,0.459,2.354,11.1
2021-01-03,19:45:42.037798,5.15,0.296,1.521,17.4
2021-01-03,19:45:43.356740,5.11,0.290,1.483,17.5
2021-01-03,19:45:44.648104,5.05,0.578,2.921,8.7
2021-01-03,19:45:45.969256,5.11,0.319,1.630,16.0
2021-01-03,19:45:47.266650,5.14,0.291,1.498,17.6
2021-01-03,19:45:48.580555,5.09,0.461,2.342,11.0
2021-01-03,19:45:49.871742,5.13,0.539,2.767,9.5
2021-01-03,19:45:51.192882,5.14,0.382,1.961,13.4
2021-01-03,19:45:52.509408,5.15,0.304,1.566,16.9
2021-01-03,19:45:53.805449,5.11,0.411,2.100,12.4
2021-01-03,19:45:55.096787,5.09,0.526,2.681,9.6
2021-01-03,19:45:56.421828,5.14,0.295,1.515,17.4
2021-01-03,19:45:57.715524,5.15,0.292,1.501,17.6
2021-01-03,19:45:59.030467,5.08,0.583,2.963,8.7
2021-01-03,19:46:00.320401,5.10,0.436,2.224,11.6
2021-01-03,19:46:01.645594,5.15,0.289,1.489,17.7
2021-01-03,19:46:02.936799,5.13,0.437,2.242,11.7
2021-01-03,19:46:04.270499,5.12,0.660,3.379,7.7
2021-01-03,19:46:05.594431,5.15,0.552,2.841,9.3
2021-01-03,19:46:06.870611,5.15,0.291,1.497,17.7
2021-01-03,19:46:08.164395,5.11,0.591,3.021,8.6
2021-01-03,19:46:09.479393,5.09,0.440,2.240,11.5
2021-01-03,19:46:10.770635,5.14,0.322,1.654,15.9
2021-01-03,19:46:12.098462,5.14,0.439,2.255,11.7
2021-01-03,19:46:13.383114,5.09,0.604,3.073,8.4
2021-01-03,19:46:14.704372,5.14,0.488,2.507,10.5
2021-01-03,19:46:15.994262,5.15,0.303,1.559,17.0
2021-01-03,19:46:17.315730,5.11,0.579,2.957,8.8
2021-01-03,19:46:18.607071,5.06,0.431,2.179,11.7
2021-01-03,19:46:19.930600,5.14,0.318,1.637,16.1
2021-01-03,19:46:21.218368,5.12,0.291,1.487,17.6
2021-01-03,19:46:22.539483,5.09,0.631,3.211,8.0
2021-01-03,19:46:23.847192,5.10,0.337,1.719,15.1
2021-01-03,19:46:25.151842,5.15,0.306,1.575,16.8
2021-01-03,19:46:26.443307,5.08,0.450,2.287,11.2
2021-01-03,19:46:27.764514,5.11,0.457,2.334,11.2
2021-01-03,19:46:29.055704,5.13,0.319,1.635,16.1
2021-01-03,19:46:30.377176,5.14,0.391,2.008,13.1
2021-01-03,19:46:31.668235,5.15,0.297,1.532,17.3
2021-01-03,19:46:32.989477,5.10,0.544,2.773,9.3
2021-01-03,19:46:34.279520,5.11,0.357,1.824,14.3
2021-01-03,19:46:35.600895,5.14,0.397,2.040,12.9
