"usr","sys","idl","wai","stl","read","writ","used","free","buff","cach","recv","send","time","#recv","#send"
1.973,1.839,94.868,1.321,0,1506704.146,37505.518,107859968,704122880,21405696,138223616,0,0,Jan-03 00:06:06,0,0
12.468,3.562,76.845,7.125,0,10895360,0,113037312,693280768,21577728,143470592,3168,3196,Jan-03 00:06:07,12,16
4.750,2.500,87,5.750,0,7053312,196608,115621888,686866432,21757952,146812928,46,0,Jan-03 00:06:08,1,0
4.545,1.515,84.091,9.848,0,19431424,8192,119500800,673026048,21762048,156704768,271,0,Jan-03 00:06:09,3,0
1.772,1.519,73.924,22.785,0,39329792,0,120999936,651751424,21815296,176369664,46,0,Jan-03 00:06:10,1,0
8.906,3.308,67.176,20.611,0,35209216,0,124674048,630423552,21958656,193806336,298,0,Jan-03 00:06:11,2,0
7.160,2.222,46.420,44.198,0,11337728,1163264,128012288,621137920,22011904,199659520,0,0,Jan-03 00:06:12,0,0
5.556,0,57.828,36.616,0,3743744,172032,130039808,617443328,22020096,201318400,72,0,Jan-03 00:06:13,1,0
14.925,3.234,67.413,14.428,0,21135360,90112,136851456,599822336,22032384,212213760,132,0,Jan-03 00:06:14,2,0
21.574,1.777,73.350,3.299,0,6504448,0,147386368,586153984,22032384,215789568,72,0,Jan-03 00:06:15,1,0
10.302,2.010,74.372,13.317,0,24223744,0,151052288,570306560,22167552,227778560,0,0,Jan-03 00:06:16,0,0
13.555,1.790,30.946,53.708,0,4898816,2596864,155848704,562515968,22437888,230817792,0,0,Jan-03 00:06:17,0,0
19.338,1.018,71.247,8.397,0,8691712,8192,166383616,547708928,22437888,235094016,0,0,Jan-03 00:06:18,0,0
19.898,4.847,68.112,7.143,0,11051008,147456,181026816,527556608,22462464,240754688,0,0,Jan-03 00:06:19,0,0
43.970,8.543,37.688,9.799,0,14712832,114688,202006528,498946048,22552576,248037376,0,0,Jan-03 00:06:20,0,0
18.228,2.785,63.544,15.443,0,3825664,1835008,217706496,480784384,22642688,250408960,0,0,Jan-03 00:06:21,0,0
15.013,2.290,63.104,19.593,0,5234688,450560,221601792,474103808,22818816,252960768,2445,2689,Jan-03 00:06:22,17,20
47.423,4.381,27.577,20.619,0,2187264,1728512,235941888,457990144,22974464,254537728,4561,1211,Jan-03 00:06:23,7,8
37.310,5.584,19.036,38.071,0,1114112,2088960,250667008,442236928,23052288,255406080,9790,3795,Jan-03 00:06:24,22,27
20.769,1.795,52.821,24.615,0,1957888,2842624,255123456,436277248,23318528,256634880,214688,15299,Jan-03 00:06:25,164,145
4.500,0.750,74,20.750,0,8192,1269760,256376832,434487296,23388160,257093632,72,0,Jan-03 00:06:26,1,0
1.746,1.247,52.120,44.888,0,0,1679360,257859584,431099904,23416832,258953216,164,50,Jan-03 00:06:27,3,1
1.253,0.501,71.429,26.817,0,0,5693440,257593344,430116864,23425024,260165632,46,0,Jan-03 00:06:28,1,0
28.680,4.315,54.061,12.944,0,507904,196608,259928064,427466752,23449600,260530176,4447,2125,Jan-03 00:06:29,15,15
44.819,3.109,32.124,19.948,0,974848,2711552,269877248,415555584,23584768,262262784,202136,17961,Jan-03 00:06:30,164,169
27.110,3.069,54.220,15.601,0,2424832,753664,271962112,411713536,23617536,263999488,387447,13618,Jan-03 00:06:31,268,159
13.555,2.046,44.501,39.898,0,1081344,3784704,276164608,407056384,23654400,264392704,516564,15447,Jan-03 00:06:32,362,195
40.674,5.699,51.036,2.591,0,778240,524288,285130752,397631488,23687168,264818688,564770,22156,Jan-03 00:06:33,413,237
8.101,2.785,37.722,51.392,0,385024,5718016,285790208,396615680,23703552,265158656,237600,6698,Jan-03 00:06:34,166,85
42.386,6.345,31.980,19.289,0,638976,286720,291524608,390049792,23728128,265949184,588053,42435,Jan-03 00:06:35,494,367
14.910,3.342,30.591,51.157,0,1646592,1024000,284971008,395218944,23748608,267272192,226429,16991,Jan-03 00:06:36,195,140
49.235,5.357,23.469,21.939,0,3440640,1368064,288182272,388161536,23830528,275865600,116316,6394,Jan-03 00:06:37,95,59
21.558,1.039,27.013,50.390,0,1351680,3588096,296423424,379056128,23859200,281591808,2018,412,Jan-03 00:06:38,3,3
1.295,0.259,34.974,63.472,0,1236992,540672,296198144,378572800,23883776,282275840,46,0,Jan-03 00:06:39,1,0
4.113,0.257,26.735,68.895,0,2064384,876544,296316928,377524224,23920640,283164672,122,102,Jan-03 00:06:40,2,1
6.091,1.523,52.538,39.848,0,7004160,1204224,296304640,373596160,24039424,286887936,46,0,Jan-03 00:06:41,1,0
33.835,3.258,59.649,3.258,0,7290880,155648,298860544,367386624,24051712,290508800,15474,3128,Jan-03 00:06:42,20,22
42.317,6.549,49.874,1.259,0,1638400,172032,302784512,353976320,24059904,299859968,183995,20261,Jan-03 00:06:43,191,147
27.692,1.795,70,0.513,0,696320,0,307023872,349331456,24059904,300470272,34360,4153,Jan-03 00:06:44,36,37
42.569,5.542,49.118,2.771,0,6365184,0,334204928,318726144,24059904,322211840,140534,17164,Jan-03 00:06:45,144,143
48.872,8.521,37.845,4.762,0,6733824,270336,343904256,305315840,24117248,326000640,231424,23480,Jan-03 00:06:46,211,218
42.455,3.325,52.174,2.046,0,237568,786432,355561472,292921344,24137728,327196672,185164,10588,Jan-03 00:06:47,140,109
35.443,1.519,63.038,0,0,0,0,363053056,285241344,24137728,326823936,614,232,Jan-03 00:06:48,3,2
40,3.077,56.923,0,0,0,0,369983488,277995520,24137728,327135232,145394,13810,Jan-03 00:06:49,140,115
37.056,3.807,59.137,0,0,0,0,376172544,271519744,24137728,327405568,41241,5173,Jan-03 00:06:50,49,50
46.094,4.167,49.740,0,0,0,24576,379408384,268177408,24137728,329383936,823162,53917,Jan-03 00:06:51,626,570
56.456,6.835,36.709,0,0,0,245760,384188416,263073792,24145920,329687040,308845,47198,Jan-03 00:06:52,301,291
62.121,7.323,30.556,0,0,40960,0,396656640,250322944,24145920,329949184,424672,33700,Jan-03 00:06:53,316,306
39.386,4.092,56.522,0,0,0,0,379596800,267362304,24145920,309362688,63532,2187,Jan-03 00:06:54,50,26
27.638,2.513,69.849,0,0,0,0,388345856,258347008,24145920,309624832,10550,2219,Jan-03 00:06:55,20,20
30.749,2.842,66.408,0,0,0,999424,390443008,256249856,24145920,309624832,32696,5872,Jan-03 00:06:56,49,45
30.769,1.282,67.436,0.513,0,0,638976,392011776,254668800,24154112,310116352,144677,8644,Jan-03 00:06:57,120,94
40.201,7.538,52.261,0,0,0,0,417296384,229380096,24154112,328278016,15123,2738,Jan-03 00:06:58,25,22
38.265,1.276,60.459,0,0,0,0,419295232,227381248,24154112,328278016,92644,11403,Jan-03 00:06:59,91,92
44.072,4.124,51.031,0.773,0,737280,532480,428163072,218058752,24178688,330141696,43643,7765,Jan-03 00:07:00,59,51
28.571,1.504,69.925,0,0,0,851968,438263808,207933440,24178688,330240000,190,94,Jan-03 00:07:01,3,1
35.533,2.030,43.147,19.289,0,0,237568,442028032,204083200,24182784,330047488,82200,8024,Jan-03 00:07:02,85,64
42.711,7.928,20.205,29.156,0,0,163840,426459136,219340800,24190976,330661888,21894,16118,Jan-03 00:07:03,77,70
39.948,5.412,41.753,12.887,0,0,688128,436445184,208453632,24195072,333443072,906375,32904,Jan-03 00:07:04,640,345
37.284,4.938,57.778,0,0,0,0,441126912,203808768,24195072,333529088,265566,22460,Jan-03 00:07:05,223,207
62.255,7.843,27.696,2.206,0,0,335872,427151360,217661440,24195072,333512704,17049,21534,Jan-03 00:07:06,41,60
29.157,6.988,44.096,19.759,0,0,1794048,396894208,247902208,24195072,313057280,1201,328,Jan-03 00:07:07,5,4
39.709,3.632,36.320,20.339,0,0,417792,404037632,240803840,24199168,312991744,46,0,Jan-03 00:07:08,1,0
33.738,0.485,57.039,8.738,0,0,598016,406360064,238481408,24203264,312987648,2064,1754,Jan-03 00:07:09,4,8
35.337,2.163,62.500,0,0,0,0,410476544,234360832,24203264,312991744,9483,2070,Jan-03 00:07:10,22,16
27.670,3.883,54.369,14.078,0,0,114688,427798528,217038848,24203264,327114752,46,0,Jan-03 00:07:11,1,0
43.921,6.700,40.199,9.181,0,8192,974848,428232704,216576000,24207360,330207232,1185,1263,Jan-03 00:07:12,15,8
35.802,2.716,61.481,0,0,0,0,430059520,214724608,24207360,330039296,4406,3307,Jan-03 00:07:13,12,15
41.687,3.722,54.094,0.496,0,0,458752,441323520,203366400,24231936,331612160,412,500,Jan-03 00:07:14,7,6
28.954,1.946,69.100,0,0,24576,0,447516672,197177344,24231936,331608064,118,0,Jan-03 00:07:15,2,0
58.186,10.327,24.181,7.305,0,8192,237568,442040320,202543104,24244224,332943360,1470,1794,Jan-03 00:07:16,18,16
40.695,6.203,53.102,0,0,0,8192,447537152,197029888,24248320,333271040,5105,12250,Jan-03 00:07:17,50,30
35.013,4.030,60.957,0,0,0,3653632,423424000,221138944,24248320,335114240,5107,14909,Jan-03 00:07:18,86,139
55,7,34.750,3.250,0,0,2990080,425238528,219262976,24248320,335314944,24592,13741,Jan-03 00:07:19,101,88
67.830,10.973,12.718,8.479,0,0,5079040,444231680,200171520,24248320,335507456,32740,16157,Jan-03 00:07:20,73,88
54.962,2.799,19.847,22.392,0,0,1441792,448028672,196325376,24252416,335282176,17833,20342,Jan-03 00:07:21,39,53
30.633,3.544,28.608,37.215,0,0,1343488,450560000,193794048,24252416,335265792,20657,12916,Jan-03 00:07:22,73,85
59.033,8.906,17.557,14.504,0,98304,3710976,454246400,190058496,24252416,335323136,135841,71193,Jan-03 00:07:23,251,314
37.722,4.051,14.684,43.544,0,0,352256,462987264,181317632,24252416,335314944,1258244,66754,Jan-03 00:07:24,864,675
38.346,5.013,23.058,33.584,0,0,2138112,482893824,160890880,24256512,335802368,171841,10562,Jan-03 00:07:25,125,105
36.573,1.023,37.596,24.808,0,0,598016,479465472,164196352,24256512,335904768,14852,3713,Jan-03 00:07:26,16,21
34.848,3.535,22.222,39.394,0,1245184,491520,484798464,157954048,24260608,337039360,883,526,Jan-03 00:07:27,6,6
35.088,4.010,15.288,45.614,0,655360,491520,473210880,169304064,24272896,337125376,0,0,Jan-03 00:07:28,0,0
23.559,2.005,17.544,56.892,0,843776,1269760,474943488,167239680,24313856,338972672,0,0,Jan-03 00:07:29,0,0
47.959,9.694,32.143,10.204,0,0,1654784,441892864,199102464,24371200,347066368,1277534,48240,Jan-03 00:07:30,900,235
74.936,9.974,11.765,3.325,0,139264,1253376,467161088,173273088,24428544,347594752,239516,7150,Jan-03 00:07:31,176,47
70.051,9.645,19.543,0.761,0,0,1064960,476135424,164270080,24453120,347602944,1851,266,Jan-03 00:07:32,6,3
69.351,6.494,17.922,6.234,0,0,2301952,484995072,155103232,24674304,347992064,1263194,12162,Jan-03 00:07:33,874,116
68.229,4.688,21.875,5.208,0,0,1130496,494157824,145764352,24764416,348450816,377,178,Jan-03 00:07:34,4,2
77.250,9.250,13.250,0.250,0,0,851968,504504320,134033408,24764416,349884416,198511,19624,Jan-03 00:07:35,190,144
74.485,11.340,7.216,6.959,0,0,2220032,505847808,132505600,24780800,350244864,91838,12668,Jan-03 00:07:36,94,97
83.838,14.899,1.263,0,0,0,466944,522379264,115896320,24805376,350314496,10559,4186,Jan-03 00:07:37,19,23
83.333,8.081,7.828,0.758,0,0,663552,549023744,88678400,24829952,350740480,198134,8457,Jan-03 00:07:38,152,62
66.835,9.620,20.759,2.785,0,0,1073152,558333952,86470656,24875008,345538560,1591815,24546,Jan-03 00:07:39,1085,284
87.250,11.250,1.250,0.250,0,0,729088,585773056,91525120,24875008,313065472,2912,5088,Jan-03 00:07:40,26,28
81.679,10.178,1.527,6.616,0,0,696320,589672448,87420928,24875008,313286656,1058,1086,Jan-03 00:07:41,13,13
69.825,9.975,5.985,14.214,0,16384,1523712,592703488,93073408,24879104,303853568,53326,19458,Jan-03 00:07:42,112,121
70.876,10.825,5.155,13.144,0,229376,1933312,598052864,87416832,24895488,304148480,97457,18648,Jan-03 00:07:43,141,133
66.751,22.843,0,10.406,0,122880,11296768,607985664,99909632,24903680,271724544,3307354,96886,Jan-03 00:07:44,2277,925
52.593,6.914,9.630,30.864,0,106496,6144000,621809664,94740480,24907776,263081984,1238484,15424,Jan-03 00:07:45,841,185
45.897,4.615,30,19.487,0,245760,5070848,633049088,87773184,24907776,258850816,5578,2480,Jan-03 00:07:46,21,20
54.177,7.089,28.861,9.873,0,262144,466944,630251520,95772672,24911872,253677568,38755,6792,Jan-03 00:07:47,43,36
41.344,6.977,2.326,49.354,0,40960,647168,629485568,95301632,24915968,254914560,77829,7225,Jan-03 00:07:48,77,37
40.674,5.699,0,53.627,0,147456,1810432,630112256,94474240,24915968,255107072,3623,9241,Jan-03 00:07:49,11,15
22.938,2.835,0,74.227,0,147456,2129920,630136832,94355456,24915968,255193088,862,2589,Jan-03 00:07:50,3,3
33.249,6.853,7.360,52.538,0,385024,270336,590770176,133578752,24915968,255340544,1214,2490,Jan-03 00:07:51,16,14
41.772,5.570,17.215,35.443,0,0,5865472,589238272,135110656,24915968,255332352,1083,2641,Jan-03 00:07:52,5,4
33.249,5.330,19.543,41.878,0,704512,2203648,588943360,134549504,24936448,256192512,196,266,Jan-03 00:07:53,3,3
42.408,5.497,26.702,25.393,0,638976,1622016,577245184,145403904,25001984,256909312,910,1816,Jan-03 00:07:54,13,13
42.674,5.141,17.481,34.704,0,1851392,1097728,579350528,141570048,25038848,258650112,1661,4314,Jan-03 00:07:55,18,12
36.224,5.357,17.602,40.816,0,2727936,1245184,582029312,136790016,25071616,260702208,156,234,Jan-03 00:07:56,3,3
41.538,6.923,17.179,34.359,0,8192,4620288,586903552,130756608,25108480,261832704,630,886,Jan-03 00:07:57,4,5
39.494,4.810,30.633,25.063,0,122880,1589248,587411456,127610880,25128960,264491008,98,78,Jan-03 00:07:58,2,1
40.665,3.325,23.529,32.481,0,16384,4194304,586559488,128434176,25128960,264470528,603,1277,Jan-03 00:07:59,7,6
64.948,10.052,4.639,20.361,0,745472,2129920,589348864,116338688,25255936,273690624,152704,8506,Jan-03 00:08:00,112,96
78.406,11.054,5.398,5.141,0,2170880,2408448,596881408,107167744,25427968,275099648,563,1617,Jan-03 00:08:01,7,7
81.934,11.705,2.799,3.562,0,753664,376832,605335552,98168832,25448448,285081600,274107,21970,Jan-03 00:08:02,236,222
79.798,15.152,0,5.051,0,237568,901120,632082432,95223808,15544320,289783808,88247,3052,Jan-03 00:08:03,71,30
83.668,11.809,0,4.523,0,0,1769472,635240448,90128384,15568896,291651584,1153400,25079,Jan-03 00:08:04,830,224
74.747,12.879,1.263,11.111,0,1155072,2007040,640409600,90669056,10977280,290091008,18881,14503,Jan-03 00:08:05,47,62
74.257,20.297,3.465,1.980,0,6070272,1097728,647053312,86806528,8663040,291991552,38543,14252,Jan-03 00:08:06,62,68
79.250,20.250,0.500,0,0,344064,712704,657784832,86515712,3244032,287051776,8461,6565,Jan-03 00:08:07,21,27
77.363,21.393,0.746,0.498,0,237568,2113536,670953472,72065024,3313664,288751616,47823,12117,Jan-03 00:08:08,76,84
74.500,19.500,4.750,1.250,0,8192,2973696,681398272,61210624,3350528,295682048,56454,12145,Jan-03 00:08:09,76,90
60.488,23.659,2.439,13.415,0,565248,3612672,663212032,77193216,3395584,268910592,700140,13444,Jan-03 00:08:10,519,110
30.913,12.412,0,56.674,0,0,1908736,662745088,77451264,3399680,269135872,681,1458,Jan-03 00:08:11,9,5
39.036,11.084,20.241,29.639,0,483328,466944,657297408,81969152,3411968,270049280,6087,1342,Jan-03 00:08:12,14,13
65.250,14.250,14.500,6,0,40960,1114112,660709376,77967360,3452928,270585856,39502,3593,Jan-03 00:08:13,41,41
74.813,16.958,8.229,0,0,0,679936,668332032,70008832,3493888,270884864,192680,11291,Jan-03 00:08:14,157,103
82.090,13.682,4.229,0,0,0,8192,685170688,53170176,3493888,282546176,5339,4892,Jan-03 00:08:15,19,20
73.116,15.075,11.809,0,0,8192,0,682737664,55009280,3497984,274890752,5572,6305,Jan-03 00:08:16,28,32
77.387,18.090,2.513,2.010,0,0,1474560,679612416,57348096,3522560,275652608,23536,4300,Jan-03 00:08:17,30,33
82.045,14.963,0.249,2.743,0,40960,466944,687329280,48623616,3538944,284184576,610,562,Jan-03 00:08:18,7,6
69.059,13.366,9.406,8.168,0,0,2007040,681562112,54259712,3543040,274972672,182902,6632,Jan-03 00:08:19,144,70
39.951,11.520,12.990,35.539,0,24576,1687552,679923712,55832576,3547136,275034112,16662,1961,Jan-03 00:08:20,19,21
62.562,14.039,6.158,17.241,0,0,663552,683868160,51187712,3575808,275705856,1635,4309,Jan-03 00:08:21,18,14
81.910,13.065,5.025,0,0,0,0,697921536,35979264,3575808,288522240,355,405,Jan-03 00:08:22,5,4
81.095,13.433,5.224,0.249,0,0,434176,686280704,46551040,3592192,279711744,2663,4124,Jan-03 00:08:23,23,30
62.469,10.617,18.519,8.395,0,8192,2170880,684769280,47583232,3600384,280182784,1098,2380,Jan-03 00:08:24,16,17
49.392,4.136,35.280,11.192,0,0,155648,680931328,51421184,3600384,280182784,416,624,Jan-03 00:08:25,8,8
65.750,11,19.500,3.750,0,8192,352256,682991616,49332224,3600384,281763840,22547,2977,Jan-03 00:08:26,26,26
46.482,7.538,36.935,9.045,0,0,974848,679604224,52703232,3600384,278413312,1394,1375,Jan-03 00:08:27,11,13
43.521,4.645,34.719,17.115,0,3792896,49152,667680768,62861312,4280320,279498752,6700,9197,Jan-03 00:08:28,62,74
57.143,10.526,23.058,9.273,0,6242304,376832,661843968,65523712,5492736,280514560,28610,14570,Jan-03 00:08:29,64,82
59.553,10.918,24.814,4.715,0,5455872,0,660701184,63864832,6017024,275656704,13724,13606,Jan-03 00:08:30,38,48
33.005,8.621,40.640,17.734,0,32768,2957312,661233664,63307776,6033408,275664896,19067,11303,Jan-03 00:08:31,35,41
38.350,8.010,39.563,14.078,0,0,4014080,665681920,58736640,6033408,275787776,40374,10283,Jan-03 00:08:32,62,51
34.217,9.157,11.566,45.060,0,0,3948544,670851072,62382080,5480448,267530240,6084,4765,Jan-03 00:08:33,22,26
18.735,3.893,17.762,59.611,0,24576,5087232,667021312,66121728,5484544,267616256,328,266,Jan-03 00:08:34,5,3
11.436,2.676,17.762,68.127,0,245760,2580480,667422720,65421312,5611520,267788288,937,1909,Jan-03 00:08:35,14,13
21.144,5.473,24.378,49.005,0,516096,1048576,668401664,64147456,5734400,267960320,104,865,Jan-03 00:08:36,2,3
11.055,1.759,64.070,23.116,0,0,1458176,668651520,63889408,5734400,267968512,2075,3484,Jan-03 00:08:37,9,11
4.511,0.752,70.677,24.060,0,0,1392640,668647424,63889408,5738496,267968512,1000,2869,Jan-03 00:08:38,4,5
19.549,3.008,51.880,25.564,0,147456,1073152,639266816,93048832,5738496,268189696,4323,3236,Jan-03 00:08:39,28,26
8.543,2.010,47.990,41.457,0,1802240,1638400,641163264,90185728,6205440,268689408,493,523,Jan-03 00:08:40,9,6
13.131,3.283,37.374,46.212,0,868352,1343488,649150464,81547264,6459392,269090816,1311,867,Jan-03 00:08:41,14,9
4.988,0.499,0,94.514,0,0,516096,649117696,81547264,6459392,269123584,281,305,Jan-03 00:08:42,4,3
29.188,2.792,7.868,60.152,0,516096,4726784,653160448,77152256,6623232,269312000,194,196,Jan-03 00:08:43,3,2
19.537,1.028,48.586,30.848,0,57344,1998848,649912320,80506880,6672384,269312000,420,402,Jan-03 00:08:44,7,5
27.543,4.218,52.109,16.129,0,425984,2416640,654647296,75337728,6950912,269467648,669,1058,Jan-03 00:08:45,6,7
18.066,1.527,53.435,26.972,0,1024000,2236416,658214912,71208960,7045120,270348288,302,360,Jan-03 00:08:46,5,4
5.808,1.263,28.030,64.899,0,0,2490368,658243584,70926336,7045120,270602240,1553,1410,Jan-03 00:08:47,13,12
8.060,0.252,21.159,70.529,0,0,3194880,658468864,70701056,7045120,270602240,401,445,Jan-03 00:08:48,7,5
3.316,0.255,39.031,57.398,0,24576,1277952,658636800,70459392,7049216,270671872,204,282,Jan-03 00:08:49,3,3
6.582,2.025,38.987,52.405,0,139264,4726784,659492864,69451776,7200768,270671872,545,757,Jan-03 00:08:50,9,8
33.417,3.518,35.930,27.136,0,1859584,1032192,661180416,67055616,8036352,270897152,76,102,Jan-03 00:08:51,1,1
59.091,5.808,6.566,28.535,0,0,802816,674066432,63840256,8044544,261382144,27943,14753,Jan-03 00:08:52,61,79
46.154,8.189,8.189,37.469,0,0,2670592,688807936,61591552,8187904,248938496,10492,15846,Jan-03 00:08:53,41,46
73.232,15.404,3.788,7.576,0,376832,5521408,701599744,59564032,8179712,237973504,19267,7846,Jan-03 00:08:54,33,38
44.304,8.608,4.304,42.785,0,425984,13631488,706199552,80560128,8183808,212529152,20054,6048,Jan-03 00:08:55,47,40
12.658,2.025,0,85.316,0,409600,13631488,709308416,77254656,8183808,212725760,52,78,Jan-03 00:08:56,1,1
5.584,1.523,0,92.893,0,630784,2465792,700506112,85659648,8196096,213106688,284,414,Jan-03 00:08:57,5,5
17.500,3.500,21.250,57.750,0,385024,868352,700821504,85651456,8212480,212787200,282,520,Jan-03 00:08:58,6,7
28.608,3.544,26.835,41.013,0,8192,2482176,699314176,86450176,8331264,213372928,52,78,Jan-03 00:08:59,1,1
45.897,4.872,30.256,18.974,0,2252800,737280,699990016,84561920,8769536,214110208,2462,3644,Jan-03 00:09:00,11,12
67.526,5.928,18.557,7.990,0,16384,2473984,715259904,68657152,8957952,214597632,9147,8528,Jan-03 00:09:01,33,36
54.822,12.690,22.335,10.152,0,303104,2260992,720605184,64815104,9187328,213377024,152867,8756,Jan-03 00:09:02,112,95
24.041,3.836,27.110,45.013,0,0,3227648,721068032,67379200,9183232,209805312,3461,2892,Jan-03 00:09:03,19,21
4.489,1.496,23.940,70.075,0,0,8830976,720809984,67637248,9183232,209805312,701,813,Jan-03 00:09:04,12,8
16.790,2.716,17.284,63.210,0,507904,11067392,717910016,70217728,9187328,210120704,0,0,Jan-03 00:09:05,0,0
8.081,1.263,32.323,58.333,0,16384,737280,715640832,72024064,9199616,210571264,551,1201,Jan-03 00:09:06,6,7
4.500,2.250,44.750,48.500,0,0,2498560,715116544,72540160,9199616,210579456,382,234,Jan-03 00:09:07,3,3
8.685,2.233,51.861,37.221,0,0,352256,714096640,73555968,9203712,210579456,208,312,Jan-03 00:09:08,4,4
4.975,1.741,49.254,44.030,0,0,1327104,713093120,74846208,9265152,210231296,235,305,Jan-03 00:09:09,3,3
5.160,2.457,58.477,33.907,0,0,737280,712609792,74878976,9289728,210657280,423,531,Jan-03 00:09:10,7,6
7.305,1.511,64.232,26.952,0,0,843776,713437184,74346496,9306112,210345984,423,531,Jan-03 00:09:11,7,6
7.653,2.296,64.796,25.255,0,0,5709824,713687040,70766592,9326592,213655552,319,389,Jan-03 00:09:12,6,4
27.089,5.063,38.228,29.620,0,147456,1843200,717639680,66396160,9392128,214007808,8988,4342,Jan-03 00:09:13,21,25
53.197,7.673,13.555,25.575,0,0,1261568,718782464,69664768,9424896,209604608,1872686,69482,Jan-03 00:09:14,1296,693
64.322,13.317,11.307,11.055,0,163840,1089536,726126592,72859648,9515008,199290880,148004,38747,Jan-03 00:09:15,252,286
31.432,3.376,28.871,36.321,0,991232,16302080,726241280,72175616,9732096,199745536,26999,14069,Jan-03 00:09:18,0,0
17.629,0.912,11.550,69.909,0,0,13590528,725848064,72433664,9732096,199876608,410,468,Jan-03 00:09:18,7,6
29.825,4.511,16.040,49.624,0,442368,9691136,728154112,69844992,9740288,200151040,3798,4710,Jan-03 00:09:19,30,45
12.977,1.018,23.410,62.595,0,229376,16777216,727818240,70045696,9740288,200286208,975,1379,Jan-03 00:09:20,16,16
0.252,0.504,25.189,74.055,0,0,6840320,727740416,70119424,9740288,200290304,137,195,Jan-03 00:09:21,2,2
12.788,1.790,9.719,75.703,0,2064384,696320,726581248,69636096,10301440,201371648,2113,4576,Jan-03 00:09:22,9,9
25.436,3.741,5.237,65.586,0,950272,1048576,725188608,72892416,10231808,199577600,4273,1983,Jan-03 00:09:23,6,10
32.832,4.010,31.579,31.579,0,311296,2105344,718225408,78782464,10317824,200564736,2353,3582,Jan-03 00:09:24,17,12
4.040,1.010,34.343,60.606,0,0,1130496,718135296,78835712,10321920,200597504,1024,866,Jan-03 00:09:25,15,10
22.111,2.764,43.970,31.156,0,286720,483328,717496320,78053376,10354688,201986048,5744,2114,Jan-03 00:09:26,14,14
13.636,2.273,41.414,42.677,0,991232,3743744,716419072,78295040,10428416,202739712,24268,1943,Jan-03 00:09:27,20,20
30.673,3.491,38.155,27.681,0,229376,983040,719163392,75198464,10477568,203051008,37706,5720,Jan-03 00:09:28,49,41
12.750,1,21.500,64.750,0,942080,4497408,720551936,73166848,10485760,203685888,241,273,Jan-03 00:09:29,4,3
30.280,5.598,36.896,27.226,0,1310720,2400256,723046400,74530816,10399744,209743872,100060,9458,Jan-03 00:09:30,89,67
69.773,11.083,15.113,4.030,0,1474560,548864,723705856,81666048,9043968,207507456,116629,13403,Jan-03 00:09:31,108,111
34.750,5,38.500,21.750,0,0,1835008,740536320,73924608,6393856,214970368,923,1337,Jan-03 00:09:32,7,9
7.809,2.771,42.821,46.599,0,0,9437184,739213312,75227136,6393856,214990848,0,0,Jan-03 00:09:33,0,0
39.950,5.779,19.849,34.422,0,81920,4497408,745328640,69070848,6397952,216276992,346857,27500,Jan-03 00:09:34,297,259
35.714,3.061,11.224,50,0,0,6676480,747327488,69263360,5496832,215015424,2717,701,Jan-03 00:09:35,10,8
43.939,5.808,0,50.253,0,0,10485760,755785728,66191360,3801088,217989120,69233,16048,Jan-03 00:09:36,75,76
29.950,9.901,0.248,59.901,0,8192,450560,729264128,87310336,3817472,200454144,19029,8635,Jan-03 00:09:37,44,55
49.254,8.458,0,42.289,0,188416,5521408,751624192,64827392,3817472,215662592,28176,2224,Jan-03 00:09:38,21,23
46.384,3.242,0,50.374,0,98304,16531456,753242112,62971904,3817472,217063424,4586,2474,Jan-03 00:09:39,9,12
56.313,5.051,0.253,38.384,0,524288,6799360,757485568,60215296,3809280,215588864,2640,5882,Jan-03 00:09:40,30,42
55.283,7.125,15.479,22.113,0,106496,1130496,743264256,73891840,3829760,216121344,26682,14651,Jan-03 00:09:41,48,62
73.804,6.801,9.572,9.824,0,32768,1081344,724811776,91000832,3833856,202297344,48947,3538,Jan-03 00:09:42,39,27
54.479,4.116,16.707,24.697,0,327680,4481024,732246016,81453056,3977216,218193920,19080,2187,Jan-03 00:09:43,16,19
32.603,3.163,12.895,51.338,0,0,548864,731041792,81969152,3977216,218882048,60,0,Jan-03 00:09:44,1,0
9.976,3.650,20.925,65.450,0,0,1269760,731025408,81969152,3977216,218898432,170,172,Jan-03 00:09:45,3,2
12.165,1.460,20.438,65.937,0,0,1368064,729997312,82997248,3977216,218898432,46,0,Jan-03 00:09:46,1,0
14.461,1.961,8.088,75.490,0,24576,3284992,723681280,89260032,3981312,218947584,1013,1152,Jan-03 00:09:47,11,10
21.588,1.985,0,76.427,0,0,98304,723623936,89251840,3981312,219013120,46,0,Jan-03 00:09:48,1,0
31.358,1.975,0,66.667,0,180224,1744896,721231872,91607040,3985408,219779072,298,78,Jan-03 00:09:49,4,1
10.312,2.398,16.067,71.223,0,73728,925696,721305600,91348992,3985408,219963392,118,0,Jan-03 00:09:50,2,0
9.828,2.457,20.885,66.830,0,0,671744,721108992,91541504,3985408,219967488,1502,1830,Jan-03 00:09:51,23,19
14.078,1.942,21.359,62.621,0,565248,2342912,722497536,90034176,3989504,220082176,122,102,Jan-03 00:09:52,2,1
18.069,1.238,21.535,59.158,0,65536,3284992,721911808,90583040,3993600,220114944,532,594,Jan-03 00:09:53,8,6
11.864,2.421,22.034,63.680,0,114688,1966080,722153472,90324992,4001792,220123136,410,408,Jan-03 00:09:54,6,4
11.358,1.975,19.012,67.654,0,0,1884160,721559552,90841088,4001792,220200960,200,274,Jan-03 00:09:55,3,3
22.892,2.410,14.699,60,0,0,802816,720523264,91856896,4001792,220221440,148,188,Jan-03 00:09:56,2,2
21.027,5.379,9.780,63.814,0,671744,892928,721297408,90824704,4005888,220475392,360,516,Jan-03 00:09:57,6,6
30.693,4.950,13.861,50.495,0,90112,352256,726470656,85381120,4014080,220753920,5484,1825,Jan-03 00:09:58,7,10
68.557,7.990,1.804,21.649,0,1138688,720896,733122560,77656064,4026368,223531008,246161,22824,Jan-03 00:09:59,206,141
39.798,6.045,5.038,49.118,0,8380416,1204224,732413952,76972032,5423104,223719424,59557,13475,Jan-03 00:10:00,104,104
38.107,10.997,42.711,8.184,0,13115392,131072,719323136,83714048,7086080,212185088,28557,20838,Jan-03 00:10:01,65,86
54.569,6.599,34.010,4.822,0,6987776,0,715161600,84197376,7729152,213766144,32644,22013,Jan-03 00:10:02,73,87
49.620,5.823,43.291,1.266,0,4784128,262144,714018816,82857984,7741440,216231936,23694,11038,Jan-03 00:10:03,53,54
50.390,8.831,28.052,12.727,0,12795904,1196032,724320256,67452928,8626176,220442624,7365,933,Jan-03 00:10:04,15,8
30.576,3.258,9.273,56.892,0,1146880,3129344,726482944,66072576,8896512,219385856,361,397,Jan-03 00:10:05,6,5
1.023,2.302,39.898,56.777,0,16384,1851392,725942272,71225344,7860224,215810048,46,0,Jan-03 00:10:06,1,0
15.461,4.738,40.399,39.401,0,679936,712704,722325504,74047488,7880704,216584192,499,1494,Jan-03 00:10:07,5,3
14.358,2.519,54.156,28.967,0,0,1703936,723890176,72507392,7905280,216535040,7972,5285,Jan-03 00:10:08,21,25
15.013,1.527,38.422,45.038,0,73728,131072,720838656,75603968,7909376,216485888,1066,2953,Jan-03 00:10:09,6,7
24.289,4.910,66.667,4.134,0,933888,245760,730431488,65540096,7929856,217083904,352,906,Jan-03 00:10:10,6,9
32.737,7.417,54.731,5.115,0,6782976,24576,732672000,77144064,7667712,203923456,412,805,Jan-03 00:10:11,9,9
23.797,3.291,59.241,13.671,0,7618560,40960,723906560,81997824,8429568,207073280,989,1319,Jan-03 00:10:12,14,14
4.859,0.512,69.565,25.064,0,180224,3014656,723595264,82255872,8429568,207126528,677,1205,Jan-03 00:10:13,11,12
7.868,1.015,66.751,24.365,0,49152,1679360,723185664,82509824,8429568,207286272,627,1145,Jan-03 00:10:14,11,13
6.091,1.269,68.020,24.619,0,253952,761856,723648512,81997824,8429568,207388672,72,94,Jan-03 00:10:15,1,1
4.103,0.769,45.385,49.744,0,0,606208,723640320,82006016,8433664,207384576,829,375,Jan-03 00:10:16,5,4
4.134,0,44.703,51.163,0,0,245760,723607552,82038784,8433664,207384576,0,0,Jan-03 00:10:17,0,0
5.913,1.028,44.473,48.586,0,114688,802816,723353600,82079744,8433664,207699968,1666,1114,Jan-03 00:10:18,14,9
5.115,0.512,43.990,50.384,0,270336,344064,723476480,81821696,8433664,207888384,273,265,Jan-03 00:10:19,5,3
14.249,3.053,46.310,36.387,0,2064384,1630208,726921216,76910592,8609792,209186816,98,78,Jan-03 00:10:20,2,1
14.103,1.795,47.949,36.154,0,4251648,1130496,729489408,72216576,8732672,211255296,729,964,Jan-03 00:10:21,6,6
16.040,4.010,57.393,22.556,0,3121152,1048576,735666176,74764288,8732672,202530816,515,655,Jan-03 00:10:22,9,7
8.122,1.777,45.431,44.670,0,851968,2056192,737271808,72740864,8736768,202944512,46,0,Jan-03 00:10:23,1,0
18.414,2.302,21.995,57.289,0,98304,679936,741609472,68112384,8736768,203255808,106,0,Jan-03 00:10:24,2,0
3.562,0.509,0,95.929,0,0,753664,741519360,68112384,8736768,203345920,46,0,Jan-03 00:10:25,1,0
10.633,1.013,0,88.354,0,0,630784,742518784,67080192,8736768,203378688,506,954,Jan-03 00:10:26,8,10
11.705,1.781,0,86.514,0,794624,253952,742154240,67338240,8736768,203485184,137,195,Jan-03 00:10:27,2,2
4.113,0.257,8.740,86.889,0,0,376832,742141952,67346432,8740864,203485184,187,329,Jan-03 00:10:28,2,3
8.354,1.266,28.101,62.278,0,770048,344064,742543360,66514944,8740864,203915264,216,627,Jan-03 00:10:29,3,6
26.221,8.997,22.622,42.159,0,7282688,712704,749543424,68472832,7966720,195919872,6585,6651,Jan-03 00:10:30,28,32
42.607,8.020,8.271,41.103,0,1212416,589824,752300032,84746240,5799936,179212288,24696,12705,Jan-03 00:10:31,43,54
22.901,3.053,13.486,60.560,0,2228224,1384448,752230400,83390464,5828608,180609024,4991,3217,Jan-03 00:10:32,13,18
37.275,8.226,11.054,43.445,0,4055040,2138112,763252736,70012928,6164480,183103488,15960,4900,Jan-03 00:10:33,35,29
45.823,11.392,3.291,39.494,0,4825088,1531904,775725056,67149824,3719168,175960064,334,627,Jan-03 00:10:34,5,6
45.178,15.736,19.289,19.797,0,11632640,1712128,781967360,73568256,3002368,163651584,302,344,Jan-03 00:10:35,5,4
30.184,7.087,27.822,34.908,0,5668864,1810432,788975616,70979584,2768896,159420416,545,1216,Jan-03 00:10:36,6,3
11.749,4.961,66.841,16.449,0,8036352,1695744,794775552,69099520,3252224,155545600,625,503,Jan-03 00:10:37,6,6
30.102,7.143,44.643,18.112,0,5832704,98304,796094464,67977216,3403776,154689536,13095,8401,Jan-03 00:10:38,36,43
40.750,14,22.250,23,0,10338304,835584,807878656,73306112,2969600,138518528,5377,3853,Jan-03 00:10:39,9,11
15.104,4.688,9.115,71.094,0,6668288,1196032,808255488,69419008,3170304,141365248,1207,737,Jan-03 00:10:40,4,4
38.071,8.883,8.122,44.924,0,11886592,1122304,807747584,74149888,3035136,137281536,508,640,Jan-03 00:10:41,9,7
29.396,8.136,28.871,33.596,0,15458304,1343488,811503616,72560640,3035136,135598080,148287,7730,Jan-03 00:10:42,104,94
7.789,2.261,21.608,68.342,0,3850240,1024000,812617728,69496832,3457024,137125888,243,303,Jan-03 00:10:43,4,4
8.226,3.085,26.221,62.468,0,6021120,671744,814653440,74915840,3039232,130088960,168,261,Jan-03 00:10:44,3,3
10.714,4.847,37.245,47.194,0,18866176,827392,814931968,69885952,2932736,134950912,60,0,Jan-03 00:10:45,1,0
4.627,4.370,53.728,37.275,0,4014080,1024000,817713152,74014720,2916352,128057344,80,82,Jan-03 00:10:46,1,1
4.580,2.036,48.855,44.529,0,3686400,4554752,817324032,70651904,3047424,131678208,0,0,Jan-03 00:10:47,0,0
5.928,4.124,8.763,81.186,0,7340032,2695168,818470912,74772480,2097152,127361024,1002,614,Jan-03 00:10:48,3,3
11.692,6.965,14.677,66.667,0,11853824,712704,818606080,68521984,2117632,133455872,892,1098,Jan-03 00:10:49,8,9
8.527,6.977,21.189,63.307,0,10502144,851968,822337536,75239424,999424,124125184,507,425,Jan-03 00:10:50,6,7
1.786,2.041,24.490,71.684,0,3186688,663552,822403072,73691136,1015808,125591552,158,242,Jan-03 00:10:51,0,0
1.018,0,13.486,85.496,0,0,319488,822403072,73691136,1015808,125591552,261,383,Jan-03 00:10:52,4,4
19.638,5.685,5.168,69.509,0,16228352,819200,824053760,67198976,1175552,130265088,3924,1211,Jan-03 00:10:53,7,7
6.202,4.134,19.638,70.026,0,7520256,368640,823619584,69021696,1019904,129056768,209,242,Jan-03 00:10:54,3,3
6.266,3.133,22.193,68.407,0,6373376,352256,824045568,73117696,1155072,124399616,5717,1847,Jan-03 00:10:55,12,11
10.052,8.763,22.680,58.505,0,12689408,2138112,827510784,74698752,1003520,119975936,4935,3007,Jan-03 00:10:56,10,11
0.518,1.295,25.648,72.539,0,3235840,450560,826572800,73633792,1429504,121552896,76,102,Jan-03 00:10:57,1,1
28.608,12.658,11.646,47.089,0,21331968,458752,829100032,73048064,2031616,118992896,72740,6773,Jan-03 00:10:58,70,56
79.353,14.428,1.244,4.975,0,19447808,155648,837459968,71028736,585728,114098176,50448,20475,Jan-03 00:10:59,112,136
43.112,10.459,16.071,30.357,0,15400960,245760,843628544,71471104,786432,106332160,1792355,57845,Jan-03 00:11:00,1206,577
24.165,1.028,0,74.807,0,3055616,6119424,842379264,68874240,905216,110059520,848,1056,Jan-03 00:11:01,5,7
3.038,0.759,0,96.203,0,0,270336,842350592,68374528,905216,110559232,132,160,Jan-03 00:11:02,2,2
0.765,1.276,0,97.959,0,3006464,212992,841781248,67534848,1044480,111828992,674,494,Jan-03 00:11:03,7,5
3.599,7.969,5.913,82.519,0,31834112,278528,714899456,188186624,2117632,116969472,4111,3187,Jan-03 00:11:04,17,26
18.557,5.412,18.814,57.216,0,38002688,0,693362688,191197184,3227648,133279744,12582,11322,Jan-03 00:11:05,30,31
6.202,5.943,26.098,61.757,0,37855232,139264,684417024,181256192,3964928,151425024,1116,992,Jan-03 00:11:06,12,10
32.292,6.771,49.219,11.719,0,18276352,0,685244416,171368448,5128192,159330304,13042,8376,Jan-03 00:11:07,37,41
43.367,7.908,41.582,7.143,0,9035776,0,691732480,160239616,5513216,163586048,16496,5973,Jan-03 00:11:08,39,34
26.854,3.581,64.962,4.604,0,4636672,0,695820288,153780224,5521408,165949440,0,102,Jan-03 00:11:09,0,1
13.924,5.823,57.215,23.038,0,18145280,8192,700723200,139763712,6508544,174071808,1098,1767,Jan-03 00:11:10,15,10
27.907,3.359,46.770,21.964,0,19374080,1277952,708255744,122093568,7172096,183541760,52,78,Jan-03 00:11:11,1,1
16.923,1.538,49.744,31.795,0,7454720,581632,711495680,115359744,7200768,187133952,295,381,Jan-03 00:11:12,5,5
49.873,4.835,41.221,4.071,0,6676480,0,718716928,104787968,7213056,190500864,9866,3337,Jan-03 00:11:13,16,20
28.608,4.557,60,6.835,0,11362304,0,722059264,95723520,7835648,196014080,1996,5493,Jan-03 00:11:14,10,11
15.090,2.046,43.990,38.875,0,7741440,163840,727162880,86683648,7847936,200187904,287,265,Jan-03 00:11:15,5,3
15.949,4.810,31.139,48.101,0,647168,1507328,732246016,79667200,8032256,201990144,52,193,Jan-03 00:11:16,1,2
9.669,1.527,44.275,44.529,0,4104192,778240,734187520,76820480,8118272,202805248,0,0,Jan-03 00:11:17,0,0
16.962,2.278,60.759,20,0,2859008,163840,741564416,68038656,8146944,204181504,243,303,Jan-03 00:11:18,4,4
6.394,5.371,23.274,64.962,0,0,1245184,743124992,72224768,7987200,198594560,359,563,Jan-03 00:11:19,6,6
11.839,1.763,25.693,60.705,0,1703936,3579904,745558016,69111808,7987200,199274496,156,375,Jan-03 00:11:20,3,4
3.590,1.282,28.462,66.667,0,0,81920,745607168,69087232,7987200,199249920,52,78,Jan-03 00:11:21,1,1
6.527,0.783,31.854,60.836,0,417792,573440,745885696,68829184,7995392,199426048,709,1088,Jan-03 00:11:22,4,6
4.835,3.308,23.155,68.702,0,0,229376,747819008,73158656,7290880,193921024,144,128,Jan-03 00:11:23,3,2
4.639,0.773,24.485,70.103,0,188416,647168,748138496,72634368,7294976,194121728,546,530,Jan-03 00:11:24,10,6
13.077,1.282,11.026,74.615,0,1990656,827392,747765760,72470528,7327744,194625536,1770,0,Jan-03 00:11:25,5,0
35.878,7.888,13.740,42.494,0,5251072,1032192,755863552,73052160,3870720,189403136,52,78,Jan-03 00:11:26,1,1
63.500,12.250,7,17.250,0,10289152,1351680,763686912,70668288,2445312,185835520,617,657,Jan-03 00:11:27,4,3
63.544,8.861,11.392,16.203,0,9240576,1736704,771375104,75862016,1187840,173813760,32389,17958,Jan-03 00:11:28,72,95
12.846,2.267,2.519,82.368,0,2416640,778240,771067904,75096064,2056192,174030848,1991,2908,Jan-03 00:11:29,1,0
74.937,14.536,2.506,8.020,0,12861440,352256,775438336,72159232,3858432,170795008,26019,12432,Jan-03 00:11:30,47,50
35.969,6.378,20.663,36.990,0,7487488,499712,785510400,68894720,3891200,163975168,10559,7901,Jan-03 00:11:31,28,30
36.842,6.516,44.361,12.281,0,5480448,1499136,791547904,74571776,3178496,152981504,8619,720,Jan-03 00:11:32,15,7
40.050,10.697,36.567,12.687,0,13811712,868352,794370048,71917568,4042752,151949312,854,1446,Jan-03 00:11:33,8,7
36.935,5.528,26.884,30.653,0,9822208,253952,797675520,71077888,1908736,151617536,2271,2751,Jan-03 00:11:34,20,22
15.617,5.793,24.685,53.904,0,2924544,1490944,800260096,76496896,1638400,143884288,303,303,Jan-03 00:11:35,5,4
11.111,2.584,32.041,54.264,0,1736704,860160,801452032,74424320,2121728,144281600,4633,1297,Jan-03 00:11:36,8,9
31.688,9.610,22.078,36.623,0,7839744,2310144,807428096,75173888,3571712,136421376,9792,6303,Jan-03 00:11:37,19,24
37.817,3.807,48.985,9.391,0,4792320,1433600,808484864,71012352,3653632,139141120,149297,10342,Jan-03 00:11:38,109,96
4.798,1.768,51.263,42.172,0,540672,557056,807415808,72077312,3665920,139132928,227,265,Jan-03 00:11:39,4,3
7.888,2.290,47.328,42.494,0,1679360,4923392,808157184,70524928,3715072,139894784,630,742,Jan-03 00:11:40,11,8
13.452,2.538,48.985,35.025,0,2482176,3121152,809418752,71045120,3878912,137928704,46,0,Jan-03 00:11:41,1,0
32.732,6.959,27.577,32.732,0,524288,1048576,813973504,75898880,2945024,129462272,4412,1580,Jan-03 00:11:42,13,13
14.767,3.368,27.202,54.663,0,1007616,720896,813244416,76189696,2953216,129892352,155,360,Jan-03 00:11:43,2,3
3.817,1.018,32.061,63.104,0,532480,532480,813195264,76197888,2957312,129929216,340,705,Jan-03 00:11:44,5,7
5.570,2.278,23.544,68.608,0,458752,712704,813199360,75939840,2957312,130183168,1430,848,Jan-03 00:11:45,5,6
4.835,2.545,10.941,81.679,0,917504,770048,812699648,75939840,2965504,130674688,262,1914,Jan-03 00:11:46,4,6
16.327,3.061,38.520,42.092,0,2580480,417792,814325760,72527872,2990080,132345856,66967,5356,Jan-03 00:11:47,63,49
35.550,15.857,37.084,11.509,0,17088512,1474560,828174336,72740864,1794048,119578624,1813029,92026,Jan-03 00:11:48,1266,935
11.157,2.893,2.273,83.678,0,1671168,1622016,828403712,73445376,2035712,118398976,4094,1609,Jan-03 00:11:50,0,0
11.644,3.767,27.397,57.192,0,7438336,1343488,827576320,69582848,2310144,122814464,3489,2481,Jan-03 00:11:50,9,12
8.505,4.381,27.320,59.794,0,7708672,1777664,830521344,71905280,1871872,117968896,72,0,Jan-03 00:11:51,1,0
13.846,6.667,18.462,61.026,0,20692992,868352,832811008,73744384,1499136,114212864,87823,5855,Jan-03 00:11:52,71,55
5.051,7.323,7.323,80.303,0,21667840,172032,834056192,73711616,974848,113524736,1011,922,Jan-03 00:11:53,7,6
8.040,9.548,11.809,70.603,0,34430976,753664,836333568,69197824,258048,116994048,1170,817,Jan-03 00:11:54,5,5
1.724,7.854,19.540,70.881,0,28065792,196608,836874240,75407360,270336,110231552,1037,533,Jan-03 00:11:56,10,7
7.171,8.765,27.490,56.574,0,24920064,24576,835940352,71278592,450560,115113984,46,0,Jan-03 00:11:56,1,0
6.533,10.050,29.397,54.020,0,39919616,8192,837627904,72269824,249856,112635904,376,585,Jan-03 00:11:58,7,7
4.324,2.973,38.108,54.595,0,12730368,1343488,838758400,71237632,253952,112533504,46,0,Jan-03 00:11:58,1,0
4.627,6.170,10.797,78.406,0,30408704,385024,838930432,68141056,516096,115183616,46,86,Jan-03 00:11:59,5,5
6.349,9.524,20.635,63.492,0,36519936,0,840585216,71962624,819200,109400064,8677,3692,Jan-03 00:12:00,14,15
3.025,5.516,19.039,72.420,0,23166976,1138688,842063872,74317824,1024000,105349120,46,0,Jan-03 00:12:02,1,0
6.881,7.339,27.523,58.257,0,20348928,8192,840421376,68382720,2048000,111902720,98,78,Jan-03 00:12:02,2,1
3.308,6.361,34.351,55.980,0,18964480,1335296,838361088,68898816,2195456,113299456,28444,3175,Jan-03 00:12:03,25,28
9.794,5.928,4.124,80.155,0,12713984,524288,834097152,76324864,1667072,110665728,16761,6928,Jan-03 00:12:04,53,60
19.437,5.627,3.836,71.100,0,25387008,1097728,836263936,75341824,1490944,109658112,9460,5500,Jan-03 00:12:05,19,26
2.821,0.769,3.846,92.564,0,4120576,532480,835112960,74293248,1650688,111697920,76,102,Jan-03 00:12:06,1,1
6.870,7.634,20.356,65.140,0,23519232,737280,835092480,72728576,978944,113954816,1209,460,Jan-03 00:12:07,5,4
6.154,4.615,18.205,71.026,0,17899520,1269760,830222336,73744384,2428928,116359168,908,922,Jan-03 00:12:08,8,9
7.888,2.799,1.272,88.041,0,10584064,901120,828166144,68575232,2879488,123133952,5069,1573,Jan-03 00:12:09,7,7
4.061,8.122,4.315,83.503,0,12132352,3661824,763731968,141627392,2236416,115159040,198,204,Jan-03 00:12:10,3,2
9.254,3.856,1.799,85.090,0,23265280,352256,709615616,183992320,2416640,126713856,4250,3171,Jan-03 00:12:11,21,32
13.648,4.462,32.546,49.344,0,32079872,581632,682336256,195502080,2883584,140365824,1719,2188,Jan-03 00:12:12,15,11
17.188,5.208,51.042,26.562,0,21757952,557056,676909056,190009344,4567040,149602304,13486,10679,Jan-03 00:12:13,37,47
20.888,2.350,29.504,47.258,0,7692288,1089536,679837696,183091200,5144576,153014272,307,486,Jan-03 00:12:14,4,4
25.570,4.304,59.747,10.380,0,5996544,401408,680751104,179179520,5382144,155762688,239,384,Jan-03 00:12:15,3,3
17.602,1.020,62.245,19.133,0,1761280,663552,681914368,177074176,5701632,156385280,889,2754,Jan-03 00:12:16,3,4
6.427,4.113,58.355,31.105,0,27869184,720896,685645824,159019008,6717440,169693184,10321,3975,Jan-03 00:12:17,9,11
8.740,3.085,32.391,55.784,0,9658368,1785856,686559232,153341952,6787072,174383104,6194,1683,Jan-03 00:12:18,13,14
34.527,6.905,27.621,30.946,0,11878400,958464,693735424,140324864,7143424,179855360,1064,1014,Jan-03 00:12:19,9,10
15.736,1.523,13.452,69.289,0,1720320,1351680,696487936,136462336,7176192,180932608,3642,1295,Jan-03 00:12:20,8,8
46.114,2.073,42.487,9.326,0,9650176,581632,705703936,122445824,7225344,185839616,10235,4694,Jan-03 00:12:21,21,23
28.030,4.040,63.131,4.798,0,4177920,442368,714940416,111083520,7254016,188350464,9031,1176,Jan-03 00:12:22,12,7
12.245,1.020,45.408,41.327,0,5087232,434176,716234752,107171840,7544832,190676992,358,470,Jan-03 00:12:23,4,4
16.582,3.571,56.633,23.214,0,5627904,1171456,717807616,102768640,8052736,192999424,175,282,Jan-03 00:12:24,2,2
39.130,3.325,23.529,34.015,0,6193152,1409024,725114880,92286976,8151040,196427776,20194,14666,Jan-03 00:12:25,46,57
13.959,2.792,42.640,40.609,0,5144576,696320,726695936,87826432,8232960,199159808,1135,2957,Jan-03 00:12:26,8,7
52.821,4.359,38.205,4.615,0,4939776,1376256,740757504,71327744,8384512,201445376,812,797,Jan-03 00:12:27,7,5
39.750,13.250,25.750,21.250,0,4456448,1163264,752963584,75149312,4710400,189325312,144,78,Jan-03 00:12:28,17,18
7.550,2.119,8.212,82.119,0,516096,647168,748449792,79413248,4726784,189624320,925,1575,Jan-03 00:12:30,0,0
31.429,8.571,17.143,42.857,0,196608,155648,748290048,79421440,4730880,189771776,499,2302,Jan-03 00:12:30,5,6
16.410,0.769,26.154,56.667,0,1146880,991232,747716608,79470592,4734976,190291968,1298,336,Jan-03 00:12:31,7,4
10.101,2.020,53.283,34.596,0,2211840,450560,747548672,78680064,4878336,191102976,1214,0,Jan-03 00:12:32,4,0
35.678,10.553,43.970,9.799,0,14270464,0,763084800,67026944,2469888,189612032,46,0,Jan-03 00:12:33,1,0
47.583,21.374,19.847,11.196,0,19644416,8192,787226624,70733824,1744896,162574336,92,0,Jan-03 00:12:34,2,0
6.076,4.304,68.608,21.013,0,2695168,1605632,789876736,74612736,2154496,155635712,606,530,Jan-03 00:12:35,11,6
12.152,7.342,54.684,25.823,0,11608064,106496,791838720,78077952,2445312,149925888,647,457,Jan-03 00:12:36,7,5
33.505,5.670,50.515,10.309,0,11075584,688128,795029504,69246976,2822144,155189248,2097,2403,Jan-03 00:12:37,16,17
18.041,5.412,19.845,56.701,0,3424256,1613824,797212672,71294976,2797568,151072768,5860,1948,Jan-03 00:12:38,13,12
55.013,14.139,7.455,23.393,0,7208960,2793472,803209216,72028160,2318336,144826368,25071,13099,Jan-03 00:12:39,59,72
48.354,6.076,16.709,28.861,0,5677056,598016,803459072,73867264,3874816,141180928,167056,20008,Jan-03 00:12:40,146,140
14.358,4.030,54.912,26.700,0,3760128,2236416,804356096,70504448,4005888,143515648,15331,8513,Jan-03 00:12:41,29,28
14.824,5.528,34.171,45.477,0,1146880,770048,806846464,76697600,3682304,135151616,965,2950,Jan-03 00:12:42,4,5
8.122,2.030,6.345,83.503,0,1687552,393216,804073472,78503936,3682304,136118272,254,861,Jan-03 00:12:43,4,4
3.325,1.023,12.020,83.632,0,573440,1286144,804372480,77697024,3682304,136622080,5655,586,Jan-03 00:12:44,9,6
3.038,1.266,0,95.696,0,0,3366912,804241408,77697024,3682304,136753152,362,442,Jan-03 00:12:45,7,6
3.308,2.036,1.527,93.130,0,2269184,606208,803368960,77778944,3694592,137531392,1510,0,Jan-03 00:12:46,3,0
2.302,2.046,44.757,50.895,0,1826816,1122304,803168256,75956224,3694592,139542528,20871,2271,Jan-03 00:12:47,28,23
8.376,2.538,13.198,75.888,0,2457600,1351680,803164160,74903552,3706880,140587008,168,102,Jan-03 00:12:48,3,1
53.230,9.561,2.326,34.884,0,9150464,737280,805752832,69197824,4034560,143364096,37746,5699,Jan-03 00:12:49,42,38
17.092,6.888,22.704,53.316,0,589824,655360,806666240,74616832,3207168,137859072,16954,5693,Jan-03 00:12:50,43,45
34.097,6.616,29.517,29.771,0,6356992,1671168,809132032,72036352,3198976,137990144,11924,10559,Jan-03 00:12:51,59,77
51.276,11.990,12.245,24.490,0,5603328,589824,817577984,74874880,1806336,128217088,233193,26201,Jan-03 00:12:52,1439,688
7.628,1.967,14.184,76.222,0,6176768,3317760,820154368,75673600,1839104,124727296,1769730,45250,Jan-03 00:12:57,0,0
7.216,2.405,0.344,90.034,0,5136384,1286144,819585024,73351168,2293760,127168512,288,266,Jan-03 00:12:57,5,3
14.834,2.558,30.946,51.662,0,6037504,1212416,818778112,71503872,3424256,128692224,11900,3175,Jan-03 00:12:58,18,19
40.236,10.269,2.357,47.138,0,13148160,3727360,828051456,77438976,2744320,114167808,7150,8768,Jan-03 00:13:00,19,27
10.448,1.493,41.791,46.269,0,983040,401408,832024576,73052160,2744320,114581504,92,0,Jan-03 00:13:00,2,0
7.634,1.781,10.178,80.407,0,1867776,335872,832274432,71761920,2752512,115613696,268,328,Jan-03 00:13:01,5,4
11.735,6.122,3.061,79.082,0,5382144,491520,837619712,74608640,905216,109277184,8040,1184,Jan-03 00:13:02,12,10
15.228,6.599,0,78.173,0,9658368,458752,828280832,78991360,1200128,113946624,5856,3940,Jan-03 00:13:03,21,23
29.188,6.091,15.736,48.985,0,8306688,679936,829263872,73326592,1523712,118312960,79214,5925,Jan-03 00:13:04,59,61
36.429,12.857,5.893,44.821,0,18980864,1474560,835166208,73068544,2576384,111632384,35319,5723,Jan-03 00:13:06,37,41
0.893,1.339,18.750,79.018,0,1548288,139264,835039232,72302592,2588672,112513024,478,288,Jan-03 00:13:06,3,3
11.450,8.651,12.468,67.430,0,8732672,1417216,836476928,77189120,2387968,106389504,3660,1111,Jan-03 00:13:07,6,7
24.548,11.628,17.313,46.512,0,19865600,524288,838848512,70848512,1720320,111026176,630,686,Jan-03 00:13:08,6,7
34.884,13.953,3.359,47.804,0,8175616,5169152,838418432,70881280,1482752,111644672,135,156,Jan-03 00:13:09,2,2
10.714,2.296,7.908,79.082,0,1695744,524288,838942720,68567040,1486848,113430528,181,156,Jan-03 00:13:10,3,2
7.107,8.376,20.051,64.467,0,8495104,2433024,841101312,73371648,901120,107053056,380,580,Jan-03 00:13:11,11,9
0.900,1.499,18.141,79.460,0,4317184,7847936,841060352,70791168,1667072,108896256,150,156,Jan-03 00:13:13,0,0
14.679,11.927,0,73.394,0,5718016,1056768,840269824,73113600,1531904,107503616,0,0,Jan-03 00:13:13,0,0
0.258,1.289,0,98.454,0,6152192,4186112,839749632,70692864,1814528,110161920,52,156,Jan-03 00:13:14,1,2
1.295,4.922,0,93.782,0,17375232,999424,839401472,69734400,2920448,110354432,164,156,Jan-03 00:13:15,3,2
5.943,6.460,18.346,69.251,0,24256512,614400,840134656,70217728,3260416,108797952,963,691,Jan-03 00:13:16,3,4
10.309,5.155,22.165,62.371,0,37306368,139264,705560576,186036224,3428352,127369216,822,1850,Jan-03 00:13:17,13,23
12.272,3.655,14.360,69.713,0,38928384,0,704921600,167239680,4136960,146092032,1317,2186,Jan-03 00:13:18,9,8
26.110,10.183,26.893,36.815,0,30900224,196608,695459840,161349632,4935680,159514624,5654,5734,Jan-03 00:13:19,28,29
26.854,10.230,41.944,20.972,0,10715136,0,699166720,150736896,5537792,165769216,1338,1412,Jan-03 00:13:20,7,6
13.232,0.763,48.855,37.150,0,0,9084928,697929728,151973888,5537792,165769216,204,282,Jan-03 00:13:21,3,3
16.751,2.792,30.203,50.254,0,2072576,8003584,695984128,144678912,5701632,174723072,200,266,Jan-03 00:13:22,3,3
1.023,0.512,21.483,76.982,0,638976,12623872,695717888,144527360,5709824,175132672,0,0,Jan-03 00:13:23,0,0
13.995,4.580,21.883,59.542,0,5292032,2392064,698851328,146567168,5783552,169893888,390,288,Jan-03 00:13:24,3,3
66.076,9.367,13.924,10.633,0,12951552,352256,716472320,121679872,5955584,177000448,85731,19095,Jan-03 00:13:25,123,139
54.293,5.051,30.808,9.848,0,2613248,8192,712626176,124260352,6234112,177987584,25299,21399,Jan-03 00:13:26,57,73
67.424,7.576,7.323,17.677,0,24961024,0,740200448,84008960,6979584,189919232,29172,10753,Jan-03 00:13:27,55,62
59.194,4.786,12.846,23.174,0,4972544,4440064,755081216,68800512,5574656,191655936,22385,11724,Jan-03 00:13:28,52,59
23.274,6.394,22.762,47.570,0,2916352,1171456,761622528,72445952,4907008,182145024,190,0,Jan-03 00:13:29,4,0
21.066,3.553,10.914,64.467,0,2138112,712704,762527744,70406144,4943872,183246848,152,164,Jan-03 00:13:30,2,2
36.318,10.448,21.144,32.090,0,4988928,1417216,763813888,75517952,3592192,178352128,13547,14278,Jan-03 00:13:31,107,128
19.747,2.785,25.063,52.405,0,2023424,1449984,766595072,70598656,3608576,180473856,1757,2876,Jan-03 00:13:32,13,13
50,5.808,15.909,28.283,0,5013504,344064,772300800,72638464,2105344,174239744,39269,7979,Jan-03 00:13:33,53,57
65.995,8.060,18.892,7.053,0,12263424,188416,771268608,77807616,2355200,170373120,9400,11029,Jan-03 00:13:34,29,34
31.282,8.462,25.897,34.359,0,11247616,212992,772612096,70823936,4349952,174018560,158,128,Jan-03 00:13:35,3,2
38.205,10.256,33.590,17.949,0,10813440,3981312,776331264,71331840,4194304,170192896,129,62,Jan-03 00:13:36,2,1
14.910,5.913,32.905,46.272,0,2064384,3629056,778194944,86556672,4435968,152858624,27840,1827,Jan-03 00:13:37,21,18
40.409,7.161,28.133,24.297,0,5627904,2449408,799657984,77967360,4554752,139919360,289,303,Jan-03 00:13:38,5,4
39.494,6.076,43.544,10.886,0,9551872,1146880,817500160,73322496,1966080,129310720,46,0,Jan-03 00:13:39,1,0
4.884,1.285,25.707,68.123,0,917504,1343488,816906240,73330688,1974272,129888256,2093,665,Jan-03 00:13:40,4,3
2.030,1.269,9.391,87.310,0,1105920,2088960,816443392,73072640,1982464,130600960,564,382,Jan-03 00:13:41,4,3
8.564,1.511,10.579,79.345,0,778240,655360,816787456,72556544,1982464,130772992,83,62,Jan-03 00:13:42,1,1
0.255,0,18.878,80.867,0,0,311296,816545792,72556544,1986560,131010560,46,0,Jan-03 00:13:43,1,0
15.051,3.316,3.061,78.571,0,7823360,622592,815251456,69976064,2134016,134733824,560,694,Jan-03 00:13:44,10,8
13.232,4.326,1.018,81.425,0,7299072,1302528,817631232,76541952,1036288,126885888,4687,3048,Jan-03 00:13:45,16,17
30.280,10.433,37.150,22.137,0,29523968,294912,818962432,73748480,2068480,127533056,14252,2960,Jan-03 00:13:46,13,18
23.636,13.247,23.117,40,0,34357248,393216,824954880,70955008,2850816,123539456,943,841,Jan-03 00:13:47,3,4
8.861,8.608,40.253,42.278,0,18432000,909312,827592704,74719232,704512,119279616,0,0,Jan-03 00:13:48,0,0
12.920,4.910,28.424,53.747,0,11255808,1384448,828358656,75235328,1175552,117526528,0,0,Jan-03 00:13:49,0,0
9.254,2.828,30.591,57.326,0,13180928,1441792,826265600,71098368,1318912,123613184,0,0,Jan-03 00:13:50,0,0
9.561,10.336,21.447,58.656,0,34824192,98304,827916288,74584064,667648,119128064,2103,937,Jan-03 00:13:51,8,7
6.784,7.789,18.593,66.834,0,24027136,286720,829693952,73510912,446464,118644736,6596,1227,Jan-03 00:13:52,14,14
8.017,6.892,19.409,65.682,0,38371328,286720,833077248,76136448,1187840,112365568,1016,1526,Jan-03 00:13:54,3,2
29.167,6.944,0,63.889,0,7118848,0,810786816,94945280,1187840,115847168,0,0,Jan-03 00:13:54,0,0
8.808,4.663,16.839,69.689,0,32104448,131072,805761024,83877888,1892352,131231744,144,106,Jan-03 00:13:55,2,1
11.917,1.554,13.212,73.316,0,13221888,327680,807313408,75878400,2072576,137498624,288,388,Jan-03 00:13:56,4,4
43.655,12.944,6.599,36.802,0,36044800,311296,810926080,70692864,3145728,137998336,47047,28614,Jan-03 00:13:58,101,135
16.971,10.966,9.922,62.141,0,30916608,32768,815337472,78008320,1982464,127430656,475,858,Jan-03 00:13:58,8,6
12.629,8.763,9.536,69.072,0,24428544,720896,815546368,74493952,1441792,131272704,4283,7356,Jan-03 00:13:59,8,13
6.516,4.762,0.501,88.221,0,8478720,466944,814960640,70840320,1576960,135376896,10440,714,Jan-03 00:14:00,11,9
25.293,13.115,4.684,56.909,0,41517056,212992,811978752,71397376,1339392,138043392,1546,547,Jan-03 00:14:02,2,2
17.534,14.247,13.973,54.247,0,18751488,229376,815304704,70832128,1060864,135086080,1740,760,Jan-03 00:14:02,5,5
31.458,10.230,12.532,45.780,0,26755072,262144,816394240,73646080,1273856,131055616,13440,9323,Jan-03 00:14:03,44,51
2.604,1.389,22.917,73.090,0,3334144,843776,816230400,72355840,1290240,132493312,262,258,Jan-03 00:14:05,0,0
19.249,15.493,6.103,59.155,0,19308544,245760,818397184,72839168,1552384,129585152,23332,2874,Jan-03 00:14:05,24,24
11.825,8.997,4.370,74.807,0,21250048,655360,822198272,71815168,1748992,126607360,3609,1902,Jan-03 00:14:06,9,12
1.777,6.091,2.538,89.594,0,4833280,622592,827695104,77733888,1802240,115138560,309,234,Jan-03 00:14:07,5,3
3.325,2.302,3.581,90.793,0,5488640,458752,826331136,76439552,2064384,117530624,792,1451,Jan-03 00:14:08,14,17
17.722,8.101,14.937,59.241,0,21250048,24576,825184256,73748480,2838528,120598528,42875,6946,Jan-03 00:14:09,52,47
13.811,12.276,10.742,63.171,0,25731072,565248,826646528,71684096,2465792,121573376,14492,5099,Jan-03 00:14:10,30,32
16.582,5.867,2.296,75.255,0,13729792,155648,826589184,75812864,1519616,118448128,14959,5341,Jan-03 00:14:11,25,29
24.163,12.440,4.785,58.612,0,37953536,655360,832315392,72572928,1048576,116445184,122324,12114,Jan-03 00:14:13,119,103
9.348,9.065,0,81.586,0,12533760,1409024,836145152,73347072,1232896,111669248,181,78,Jan-03 00:14:13,4,2
0.668,0.445,0,98.886,0,737280,196608,836411392,72572928,1236992,112173056,46,78,Jan-03 00:14:15,0,0
5.793,3.659,0,90.549,0,9977856,303104,837844992,69734400,1368064,113446912,224,187,Jan-03 00:14:15,4,2
6.789,5.744,4.178,83.290,0,20029440,286720,836751360,71282688,1368064,112992256,170,78,Jan-03 00:14:16,3,1
5.793,2.267,0.252,91.688,0,11321344,245760,828108800,73580544,1388544,119316480,478,156,Jan-03 00:14:17,6,2
3.817,5.089,0.763,90.331,0,16130048,786432,824074240,69701632,2379776,126238720,494,280,Jan-03 00:14:18,6,3
2.344,4.948,12.500,80.208,0,18489344,188416,825118720,70709248,2977792,123588608,0,0,Jan-03 00:14:19,0,0
8.718,11.795,2.564,76.923,0,25796608,90112,832012288,74371072,1568768,114442240,0,0,Jan-03 00:14:20,1,1
10.309,6.701,13.918,69.072,0,23535616,8192,827043840,69959680,1167360,124223488,52,78,Jan-03 00:14:21,0,0
34.555,23.560,1.309,40.576,0,36118528,131072,834838528,73297920,1257472,113000448,1094,1286,Jan-03 00:14:22,7,7
35.013,18.892,3.023,43.073,0,36765696,8192,832815104,73039872,1236992,115290112,11980,3448,Jan-03 00:14:23,18,20
28.715,11.839,11.839,47.607,0,21848064,614400,833400832,74072064,688128,114208768,1741,3581,Jan-03 00:14:24,11,11
16.487,8.012,8.320,67.180,0,12541952,8634368,834031616,71757824,704512,115867648,350,204,Jan-03 00:14:26,0,0
27.465,14.789,0.704,57.042,0,13254656,139264,832032768,78209024,696320,111419392,204,714,Jan-03 00:14:26,3,5
1.527,5.598,0,92.875,0,11657216,4186112,759795712,143896576,843776,117805056,694,690,Jan-03 00:14:27,10,7
3.117,2.857,0,94.026,0,16785408,8265728,740110336,155430912,1273856,125521920,150,206,Jan-03 00:14:28,3,3
4.521,2.926,0,92.553,0,39575552,0,720969728,155377664,1687552,143212544,395,585,Jan-03 00:14:29,6,7
11.869,3.535,17.929,66.667,0,9363456,11403264,723279872,148242432,2109440,147607552,104,1170,Jan-03 00:14:30,2,1
5.102,4.337,30.357,60.204,0,7806976,7364608,720850944,138977280,2125824,159162368,128,180,Jan-03 00:14:31,2,2
1.519,2.785,14.684,81.013,0,516096,9461760,713539584,145825792,2125824,159625216,711,832,Jan-03 00:14:32,11,8
11.392,5.823,5.063,77.722,0,13410304,3342336,728973312,131907584,2314240,157925376,208,174,Jan-03 00:14:33,3,2
58.684,16.316,10.263,14.737,0,22986752,196608,728371200,119922688,3706880,169127936,65163,14617,Jan-03 00:14:34,91,95
76.410,12.821,4.103,6.667,0,13639680,0,746237952,95158272,3874816,175853568,1026,2924,Jan-03 00:14:35,5,5
63.104,8.651,21.628,6.616,0,7127040,1130496,764784640,72409088,4009984,179908608,302,1015,Jan-03 00:14:36,3,2
34.165,7.731,32.918,25.187,0,352256,2310144,779464704,75771904,2244608,163627008,52,78,Jan-03 00:14:37,1,1
22.613,4.523,41.960,30.905,0,9928704,2580480,782090240,68866048,3108864,167043072,104,156,Jan-03 00:14:38,2,2
18.421,2.105,34.737,44.737,0,6709248,1105920,778641408,74059776,3125248,165261312,372,697,Jan-03 00:14:39,6,7
20,5.570,25.316,49.114,0,17801216,1613824,774508544,69124096,4820992,172634112,27529,5049,Jan-03 00:14:40,33,35
14.504,5.089,54.198,26.209,0,22511616,16384,776433664,75816960,4407296,164478976,52,78,Jan-03 00:14:41,1,1
28.173,11.929,21.827,38.071,0,10633216,737280,782934016,73912320,5398528,158879744,46,0,Jan-03 00:14:42,4,1
9.157,1.453,15.262,74.128,0,1892352,1015808,785534976,70406144,5742592,159440896,164,86,Jan-03 00:14:44,0,0
28.889,2.222,0,68.889,0,303104,0,785620992,70148096,5742592,159612928,0,0,Jan-03 00:14:44,0,0
52.736,10.697,7.463,29.104,0,9584640,1204224,788561920,72687616,5926912,153964544,333,265,Jan-03 00:14:45,6,3
7.089,2.025,20.759,70.127,0,1245184,3473408,787935232,70922240,5935104,156348416,46,0,Jan-03 00:14:46,1,0
7.732,3.866,22.680,65.722,0,4063232,3637248,787386368,76890112,6213632,150646784,98,78,Jan-03 00:14:47,2,1
15.561,5.867,34.694,43.878,0,6815744,327680,788647936,74035200,6258688,152346624,27846,1827,Jan-03 00:14:48,21,18
43.557,9.536,35.309,11.598,0,16080896,81920,792584192,77623296,3104768,147980288,697,694,Jan-03 00:14:49,5,4
35.550,9.463,26.854,28.133,0,18186240,1286144,801648640,79421440,2777088,137850880,978,894,Jan-03 00:14:50,7,6
0.835,0.167,24.875,74.124,0,835584,1908736,802471936,78131200,3051520,138063872,98,78,Jan-03 00:14:52,2,1
42.162,11.351,26.486,20,0,12271616,253952,805351424,69357568,4034560,142974976,2513,969,Jan-03 00:14:52,5,5
41.026,7.949,12.821,38.205,0,18243584,434176,806174720,71397376,4079616,140079104,35204,17326,Jan-03 00:14:53,74,96
48.111,10.579,19.395,21.914,0,26075136,229376,811384832,76034048,3104768,131215360,28093,16195,Jan-03 00:14:54,41,53
20.153,8.163,14.541,57.143,0,20406272,1810432,815558656,76017664,1081344,129331200,4508,4723,Jan-03 00:14:55,12,14
12.339,3.599,2.314,81.748,0,9232384,1662976,815677440,70340608,1134592,134836224,6051,1603,Jan-03 00:14:56,11,12
24.548,9.044,10.853,55.556,0,10092544,2613248,815693824,76283904,1073152,129056768,6539,2948,Jan-03 00:14:57,15,18
3.856,1.799,28.278,66.067,0,2416640,434176,811765760,78606336,1093632,130560000,46,0,Jan-03 00:14:58,1,0
46,10.750,19,24.250,0,14917632,1646592,819650560,74661888,1081344,126631936,3997,2141,Jan-03 00:14:59,11,15
33.081,7.576,18.939,40.404,0,9707520,1048576,823242752,73879552,851968,124051456,24190,7492,Jan-03 00:15:00,46,44
44.656,16.152,12.827,26.366,0,25419776,1523712,825298944,76001280,1380352,119369728,12741,4144,Jan-03 00:15:02,23,28
17.582,6.868,17.582,57.967,0,19030016,237568,830464000,73629696,552960,117395456,72,0,Jan-03 00:15:02,1,0
30.982,14.358,26.448,28.212,0,28737536,0,840818688,73236480,323584,107663360,350,312,Jan-03 00:15:04,6,4
12.105,7.895,30.789,49.211,0,34684928,204800,843190272,70656000,344064,107851776,775,1117,Jan-03 00:15:04,13,12
2.273,4.040,7.828,85.859,0,12632064,385024,842756096,74010624,344064,104931328,1145,1251,Jan-03 00:15:05,12,10
0.254,0.254,0,99.492,0,0,319488,842870784,73752576,344064,105074688,138,0,Jan-03 00:15:06,3,0
1.018,1.018,0,97.964,0,2367488,262144,842596352,72462336,344064,106639360,325,343,Jan-03 00:15:07,6,4
10.500,8.750,12.250,68.500,0,34955264,81920,816664576,91291648,491520,113594368,181,0,Jan-03 00:15:08,2,0
9.645,5.330,27.665,57.360,0,26796032,303104,817012736,77565952,778240,126902272,9959,2843,Jan-03 00:15:09,20,21
35.437,14.078,9.709,40.777,0,37314560,8192,818651136,72441856,1462272,129699840,8903,5819,Jan-03 00:15:11,19,21
15.128,13.590,11.282,60,0,34996224,0,822571008,72708096,1310720,125665280,915,2720,Jan-03 00:15:11,4,4
12.405,10.127,16.962,60.506,0,38100992,0,825098240,73224192,2027520,121905152,643,1359,Jan-03 00:15:12,8,5
16.624,9.719,19.693,53.964,0,38371328,0,824193024,73031680,294912,124735488,187,156,Jan-03 00:15:13,3,3
13.299,13.811,26.343,46.547,0,36438016,172032,828915712,76673024,1466368,115646464,341,583,Jan-03 00:15:15,6,6
8.033,7.202,32.133,52.632,0,33824768,106496,830615552,73871360,3223552,114991104,210,265,Jan-03 00:15:15,4,3
10.997,8.440,20.460,60.102,0,37355520,0,831533056,73895936,2109440,115154944,46,0,Jan-03 00:15:16,1,0
6.757,8.378,15.946,68.919,0,37330944,0,832163840,71290880,962560,118276096,98,78,Jan-03 00:15:17,2,1
5.769,7.933,32.452,53.846,0,42483712,0,835645440,73105408,622592,113319936,46,0,Jan-03 00:15:19,1,0
3.601,10.803,26.870,58.726,0,32464896,0,836132864,72704000,471040,113385472,46,0,Jan-03 00:15:19,1,0
4.199,9.449,25.197,61.155,0,36536320,0,836861952,69599232,405504,115826688,441,597,Jan-03 00:15:20,8,7
4.134,8.269,22.997,64.599,0,38051840,139264,836460544,72953856,512000,112762880,826,876,Jan-03 00:15:21,7,6
4.580,5.344,11.450,78.626,0,16572416,606208,837181440,75849728,606208,109051904,98,78,Jan-03 00:15:22,2,1
8.549,9.585,13.472,68.394,0,33669120,450560,832811008,77090816,1703936,111079424,98,78,Jan-03 00:15:23,2,1
12.065,12.065,9.977,65.893,0,42156032,0,831053824,84766720,458752,106004480,98,78,Jan-03 00:15:25,2,1
11.966,5.413,29.345,53.276,0,33169408,32768,829771776,69509120,1339392,121667584,23245,2765,Jan-03 00:15:25,24,23
7.371,11.155,27.490,53.984,0,57319424,294912,831512576,73871360,1642496,115269632,0,0,Jan-03 00:15:27,0,0
5.039,5.426,5.039,84.496,0,15753216,0,831041536,66387968,2019328,122847232,0,0,Jan-03 00:15:27,0,0
2.302,5.371,2.558,89.770,0,5570560,311296,833241088